{
  "__type__": "cc.SpriteFrame",
  "content": {
    "name": "Deer_RUN_Male_0080",
    "texture": "c9d40f1e-589a-43cb-94e6-199eba008b52",
    "atlas": "",
    "rect": [
      59,
      45,
      150,
      169
    ],
    "offset": [
      6,
      -1.5
    ],
    "originalSize": [
      256,
      256
    ],
    "capInsets": [
      0,
      0,
      0,
      0
    ]
  }
}