{
  "__type__": "cc.SpriteFrame",
  "content": {
    "name": "Wild_Boar_RUN_0000",
    "texture": "c3dec325-540b-4743-bb65-66a2bcfdf01e",
    "atlas": "",
    "rect": [
      50,
      150,
      148,
      97
    ],
    "offset": [
      -4,
      -70.5
    ],
    "originalSize": [
      256,
      256
    ],
    "capInsets": [
      0,
      0,
      0,
      0
    ]
  }
}