{
  "__type__": "cc.SpriteFrame",
  "content": {
    "name": "Deer_EAT_Female_0120",
    "texture": "71f858fd-2702-4072-996f-32f3e5132172",
    "atlas": "",
    "rect": [
      49,
      94,
      127,
      153
    ],
    "offset": [
      -15.5,
      -42.5
    ],
    "originalSize": [
      256,
      256
    ],
    "capInsets": [
      0,
      0,
      0,
      0
    ]
  }
}