{
  "__type__": "cc.SpriteFrame",
  "content": {
    "name": "Wolf_ATTACK_0120",
    "texture": "0dcd650c-9917-4980-8eb2-4c9be78c5334",
    "atlas": "",
    "rect": [
      64,
      154,
      110,
      93
    ],
    "offset": [
      -9,
      -72.5
    ],
    "originalSize": [
      256,
      256
    ],
    "capInsets": [
      0,
      0,
      0,
      0
    ]
  }
}