{
  "__type__": "cc.SpriteFrame",
  "content": {
    "name": "Wolf_RUN_0100",
    "texture": "81bf8581-0014-4490-8ebe-81514d5847bb",
    "atlas": "",
    "rect": [
      58,
      147,
      138,
      99
    ],
    "offset": [
      -1,
      -68.5
    ],
    "originalSize": [
      256,
      256
    ],
    "capInsets": [
      0,
      0,
      0,
      0
    ]
  }
}