{
  "__type__": "cc.AnimationClip",
  "_name": "collide_3",
  "_objFlags": 0,
  "_native": "",
  "_duration": 0.4666666666666667,
  "sample": 60,
  "speed": 0.8,
  "wrapMode": 1,
  "curveData": {
    "comps": {
      "cc.Sprite": {
        "spriteFrame": [
          {
            "frame": 0,
            "value": {
              "__uuid__": "adb5030e-2d88-4afb-a611-44c55288c5e8"
            }
          },
          {
            "frame": 0.08333333333333333,
            "value": {
              "__uuid__": "ed39699a-d3c3-4591-a333-9aef105b6284"
            }
          },
          {
            "frame": 0.2,
            "value": {
              "__uuid__": "910b7209-61f9-4193-89f5-92b35baac0fd"
            }
          },
          {
            "frame": 0.31666666666666665,
            "value": {
              "__uuid__": "4accb123-6a90-45d0-b6e0-05f957e96455"
            }
          },
          {
            "frame": 0.45,
            "value": {
              "__uuid__": "64b4643a-a99a-441b-a80f-13fed665c2d7"
            }
          }
        ]
      }
    }
  },
  "events": []
}