{
  "__type__": "cc.SpriteFrame",
  "content": {
    "name": "Deer_WALK_Male_0110",
    "texture": "b57cc145-ef52-424d-80d5-561e36801fe0",
    "atlas": "",
    "rect": [
      51,
      57,
      125,
      190
    ],
    "offset": [
      -14.5,
      -24
    ],
    "originalSize": [
      256,
      256
    ],
    "capInsets": [
      0,
      0,
      0,
      0
    ]
  }
}