{
  "__type__": "cc.SpriteFrame",
  "content": {
    "name": "Wolf_IDLE_0060",
    "texture": "58e4f609-ab51-4fa2-8029-64c408639d77",
    "atlas": "",
    "rect": [
      61,
      140,
      110,
      107
    ],
    "offset": [
      -12,
      -65.5
    ],
    "originalSize": [
      256,
      256
    ],
    "capInsets": [
      0,
      0,
      0,
      0
    ]
  }
}