{
  "__type__": "cc.SpriteFrame",
  "content": {
    "name": "Bear_DEATH_0030",
    "texture": "a83f917d-fa37-4e13-b4d7-21b64c47ee63",
    "atlas": "",
    "rect": [
      110,
      74,
      162,
      173
    ],
    "offset": [
      -1,
      -32.5
    ],
    "originalSize": [
      384,
      256
    ],
    "capInsets": [
      0,
      0,
      0,
      0
    ]
  }
}