{
  "__type__": "cc.SpriteFrame",
  "content": {
    "name": "Deer_IDLE_Male_0000",
    "texture": "3af5dd16-06ff-4444-a55e-25ec2bd42126",
    "atlas": "",
    "rect": [
      25,
      34,
      177,
      222
    ],
    "offset": [
      -14.5,
      -17
    ],
    "originalSize": [
      256,
      256
    ],
    "capInsets": [
      0,
      0,
      0,
      0
    ]
  }
}