{
  "__type__": "cc.SpriteFrame",
  "content": {
    "name": "Deer_EAT_Female_0080",
    "texture": "ce405304-f7f5-4043-bb04-518f5e9d661b",
    "atlas": "",
    "rect": [
      32,
      137,
      145,
      110
    ],
    "offset": [
      -23.5,
      -64
    ],
    "originalSize": [
      256,
      256
    ],
    "capInsets": [
      0,
      0,
      0,
      0
    ]
  }
}