{
  "__type__": "cc.SpriteFrame",
  "content": {
    "name": "float_island_6",
    "texture": "d1ddf046-714c-4bba-8cde-8fdfd9d8ad6f",
    "atlas": "",
    "rect": [
      0,
      0,
      911,
      465
    ],
    "offset": [
      0,
      0
    ],
    "originalSize": [
      911,
      465
    ],
    "capInsets": [
      0,
      0,
      0,
      0
    ]
  }
}