{
  "__type__": "cc.SpriteFrame",
  "content": {
    "name": "lazer_8",
    "texture": "73013150-6ea9-4a6c-b921-de451257ff46",
    "atlas": "1f188e83-b5bd-4b61-ace7-1dfeb3d5773e",
    "rect": [
      500,
      1200,
      500,
      1200
    ],
    "offset": [
      0,
      0
    ],
    "originalSize": [
      500,
      1200
    ],
    "capInsets": [
      0,
      0,
      0,
      0
    ]
  }
}