{
  "__type__": "cc.AnimationClip",
  "_name": "run",
  "_objFlags": 0,
  "_native": "",
  "_duration": 0.5166666666666667,
  "sample": 60,
  "speed": 1,
  "wrapMode": 2,
  "curveData": {
    "comps": {
      "cc.Sprite": {
        "spriteFrame": [
          {
            "frame": 0,
            "value": {
              "__uuid__": "43bace7a-75ac-4a3d-a2a7-331f7fc346c7"
            }
          },
          {
            "frame": 0.08333333333333333,
            "value": {
              "__uuid__": "06fb61ee-aa8d-4aec-a3de-1da89fa43389"
            }
          },
          {
            "frame": 0.16666666666666666,
            "value": {
              "__uuid__": "4278753f-a2c5-4073-8e78-1379defbac28"
            }
          },
          {
            "frame": 0.25,
            "value": {
              "__uuid__": "23d6e6cd-cc38-46d0-8dcb-202b92dfe25a"
            }
          },
          {
            "frame": 0.3333333333333333,
            "value": {
              "__uuid__": "23384c12-56b5-4368-b3b5-f70bd1687449"
            }
          },
          {
            "frame": 0.4166666666666667,
            "value": {
              "__uuid__": "ac9ea649-618c-4df2-895d-2b845edc7399"
            }
          },
          {
            "frame": 0.5,
            "value": {
              "__uuid__": "8efa179c-7e0e-42c2-bc57-50890438db76"
            }
          }
        ]
      }
    }
  },
  "events": []
}