{
  "__type__": "cc.SpriteFrame",
  "content": {
    "name": "Deer_IDLE_Female_0120",
    "texture": "e6e22dad-8e76-4926-9d8d-e475d95f1311",
    "atlas": "",
    "rect": [
      51,
      94,
      125,
      153
    ],
    "offset": [
      -14.5,
      -42.5
    ],
    "originalSize": [
      256,
      256
    ],
    "capInsets": [
      0,
      0,
      0,
      0
    ]
  }
}