{
  "__type__": "cc.SpriteFrame",
  "content": {
    "name": "3",
    "texture": "739b0128-c941-401c-bdb0-70946662e518",
    "atlas": "",
    "rect": [
      69,
      13,
      227,
      190
    ],
    "offset": [
      -0.5,
      -0.5
    ],
    "originalSize": [
      366,
      215
    ],
    "capInsets": [
      0,
      0,
      0,
      0
    ]
  }
}