{
  "__type__": "cc.SpriteFrame",
  "content": {
    "name": "Deer_WALK_Male_0010",
    "texture": "fa687332-2ff6-4247-affb-c24a82cc098f",
    "atlas": "",
    "rect": [
      51,
      57,
      125,
      189
    ],
    "offset": [
      -14.5,
      -23.5
    ],
    "originalSize": [
      256,
      256
    ],
    "capInsets": [
      0,
      0,
      0,
      0
    ]
  }
}