{
  "__type__": "cc.SpriteFrame",
  "content": {
    "name": "10",
    "texture": "850db662-f7fe-482a-a66e-e63b546f0289",
    "atlas": "",
    "rect": [
      48,
      2,
      271,
      211
    ],
    "offset": [
      0.5,
      0
    ],
    "originalSize": [
      366,
      215
    ],
    "capInsets": [
      0,
      0,
      0,
      0
    ]
  }
}