{
  "__type__": "cc.SpriteFrame",
  "content": {
    "name": "Deer_IDLE_Male_0110",
    "texture": "580d8dea-1d00-46dc-9019-30a13000336c",
    "atlas": "",
    "rect": [
      51,
      59,
      125,
      188
    ],
    "offset": [
      -14.5,
      -25
    ],
    "originalSize": [
      256,
      256
    ],
    "capInsets": [
      0,
      0,
      0,
      0
    ]
  }
}