{
  "__type__": "cc.SpriteFrame",
  "content": {
    "name": "Bat_FLY_0090",
    "texture": "5a8c0dbb-d0b3-4f6c-9530-a4617ab73c71",
    "atlas": "",
    "rect": [
      37,
      54,
      75,
      32
    ],
    "offset": [
      10.5,
      -6
    ],
    "originalSize": [
      128,
      128
    ],
    "capInsets": [
      0,
      0,
      0,
      0
    ]
  }
}