{
  "__type__": "cc.SpriteFrame",
  "content": {
    "name": "Wolf_IDLE_0100",
    "texture": "0c96e23a-0cbb-400a-915a-0cd6b0a7ce8d",
    "atlas": "",
    "rect": [
      58,
      139,
      113,
      108
    ],
    "offset": [
      -13.5,
      -65
    ],
    "originalSize": [
      256,
      256
    ],
    "capInsets": [
      0,
      0,
      0,
      0
    ]
  }
}