{
  "__type__": "cc.AnimationClip",
  "_name": "deer_idle_female",
  "_objFlags": 0,
  "_native": "",
  "_duration": 0.6,
  "sample": 40,
  "speed": 0.2,
  "wrapMode": 1,
  "curveData": {
    "comps": {
      "cc.Sprite": {
        "spriteFrame": [
          {
            "frame": 0,
            "value": {
              "__uuid__": "dfb3def8-28d2-4aa3-8272-9a2c024ae685"
            }
          },
          {
            "frame": 0.025,
            "value": {
              "__uuid__": "5d3f9b4f-b747-44e8-a22e-fdf18a4b5a64"
            }
          },
          {
            "frame": 0.05,
            "value": {
              "__uuid__": "cb50a240-b0fd-40b4-a33a-b4b73ce8e001"
            }
          },
          {
            "frame": 0.075,
            "value": {
              "__uuid__": "e61ae2a6-cb18-4d4d-9e5c-90a00328878d"
            }
          },
          {
            "frame": 0.1,
            "value": {
              "__uuid__": "13b6791d-6188-46d0-8ceb-e14aea79a0c2"
            }
          },
          {
            "frame": 0.125,
            "value": {
              "__uuid__": "fbbecb8b-784c-4a8e-b908-c60073193b75"
            }
          },
          {
            "frame": 0.15,
            "value": {
              "__uuid__": "0ddd19b4-6e67-47d4-b76d-14c519ba1f03"
            }
          },
          {
            "frame": 0.175,
            "value": {
              "__uuid__": "d1f33f56-a0c9-4f65-b488-4fca4153d2ca"
            }
          },
          {
            "frame": 0.2,
            "value": {
              "__uuid__": "b7bef5da-aed6-4944-a0dd-1150bd5f00b6"
            }
          },
          {
            "frame": 0.225,
            "value": {
              "__uuid__": "4ccba3ad-2d95-49be-8ac6-993004d27e72"
            }
          },
          {
            "frame": 0.25,
            "value": {
              "__uuid__": "f7faf8b0-848b-4bc7-ae44-53de8b362252"
            }
          },
          {
            "frame": 0.275,
            "value": {
              "__uuid__": "32e08d55-2082-4e9c-a228-504a32304ac4"
            }
          },
          {
            "frame": 0.3,
            "value": {
              "__uuid__": "1b07fb12-7b58-4ef6-baba-a2b7264419c1"
            }
          },
          {
            "frame": 0.325,
            "value": {
              "__uuid__": "82cc0aea-99a4-4771-8362-036c3262e5ea"
            }
          },
          {
            "frame": 0.35,
            "value": {
              "__uuid__": "b14eaf25-32ba-463a-a96a-b1494237f6dc"
            }
          },
          {
            "frame": 0.375,
            "value": {
              "__uuid__": "59a33790-6f7f-48cb-8075-c33a120a54a5"
            }
          },
          {
            "frame": 0.4,
            "value": {
              "__uuid__": "f2de9ece-f2f6-4903-9709-d2f641b3e79f"
            }
          },
          {
            "frame": 0.425,
            "value": {
              "__uuid__": "469fbaf1-0a62-4b93-ae13-d0e1e9a722da"
            }
          },
          {
            "frame": 0.45,
            "value": {
              "__uuid__": "68bc4477-1ef0-4ea9-8db3-fe7709df0587"
            }
          },
          {
            "frame": 0.475,
            "value": {
              "__uuid__": "7c3ec1b9-e38a-4171-9985-b80dba2078ee"
            }
          },
          {
            "frame": 0.5,
            "value": {
              "__uuid__": "4f8393dc-524d-4a9b-8fa0-d7ddf89aa945"
            }
          },
          {
            "frame": 0.525,
            "value": {
              "__uuid__": "80a1f07b-3e46-4d7a-aabc-9bedff5ecd90"
            }
          },
          {
            "frame": 0.55,
            "value": {
              "__uuid__": "e5ed9128-9e72-4b55-b271-83521ff393ac"
            }
          },
          {
            "frame": 0.575,
            "value": {
              "__uuid__": "43b7650a-3237-49b5-bfc3-e6434f94a6b9"
            }
          }
        ]
      }
    }
  },
  "events": []
}