{
  "__type__": "cc.SpriteFrame",
  "content": {
    "name": "Deer_IDLE_Male_0050",
    "texture": "e9ba2dad-ebbc-4ac0-8c4a-cd870899ef46",
    "atlas": "",
    "rect": [
      61,
      58,
      114,
      189
    ],
    "offset": [
      -10,
      -24.5
    ],
    "originalSize": [
      256,
      256
    ],
    "capInsets": [
      0,
      0,
      0,
      0
    ]
  }
}