{
  "__type__": "cc.SpriteFrame",
  "content": {
    "name": "Wild_Boar_WALK_0070",
    "texture": "04b14ed9-6ce8-44d2-adca-cf38dffb424f",
    "atlas": "",
    "rect": [
      56,
      148,
      125,
      100
    ],
    "offset": [
      -9.5,
      -70
    ],
    "originalSize": [
      256,
      256
    ],
    "capInsets": [
      0,
      0,
      0,
      0
    ]
  }
}