{
  "__type__": "cc.SpriteFrame",
  "content": {
    "name": "Deer_RUN_Female_0170",
    "texture": "e68d091f-a4fd-45e0-9fa5-693ba0f78e6a",
    "atlas": "",
    "rect": [
      52,
      92,
      124,
      156
    ],
    "offset": [
      -14,
      -42
    ],
    "originalSize": [
      256,
      256
    ],
    "capInsets": [
      0,
      0,
      0,
      0
    ]
  }
}