{
  "__type__": "cc.SpriteFrame",
  "content": {
    "name": "Deer_RUN_Male_0100",
    "texture": "4ff4d93e-22bf-4c29-b9e2-577d8c5670b7",
    "atlas": "",
    "rect": [
      34,
      20,
      205,
      216
    ],
    "offset": [
      8.5,
      0
    ],
    "originalSize": [
      256,
      256
    ],
    "capInsets": [
      0,
      0,
      0,
      0
    ]
  }
}