{
  "__type__": "cc.SpriteFrame",
  "content": {
    "name": "Wolf_RUN_0050",
    "texture": "de7b97b7-f8cc-4e7f-bf7c-0f367661dc57",
    "atlas": "",
    "rect": [
      46,
      152,
      150,
      91
    ],
    "offset": [
      -7,
      -69.5
    ],
    "originalSize": [
      256,
      256
    ],
    "capInsets": [
      0,
      0,
      0,
      0
    ]
  }
}