{
  "__type__": "cc.SpriteFrame",
  "content": {
    "name": "Deer_EAT_Female_0150",
    "texture": "d0a0db9c-dfc9-4253-b215-07bbf531d25d",
    "atlas": "",
    "rect": [
      49,
      93,
      127,
      154
    ],
    "offset": [
      -15.5,
      -42
    ],
    "originalSize": [
      256,
      256
    ],
    "capInsets": [
      0,
      0,
      0,
      0
    ]
  }
}