{
  "__type__": "cc.SpriteFrame",
  "content": {
    "name": "4",
    "texture": "58a1294c-b8a9-45cf-bd61-09aeb98577a8",
    "atlas": "",
    "rect": [
      8,
      0,
      171,
      191
    ],
    "offset": [
      -1.5,
      0
    ],
    "originalSize": [
      190,
      191
    ],
    "capInsets": [
      0,
      0,
      0,
      0
    ]
  }
}