{
  "__type__": "cc.AnimationClip",
  "_name": "electricityanim7",
  "_objFlags": 0,
  "_native": "",
  "_duration": 0.6,
  "sample": 20,
  "speed": 1,
  "wrapMode": 2,
  "curveData": {
    "comps": {
      "cc.Sprite": {
        "spriteFrame": [
          {
            "frame": 0,
            "value": {
              "__uuid__": "0ad0e6e4-66a6-412f-b205-8ab26d6dd718"
            }
          },
          {
            "frame": 0.05,
            "value": {
              "__uuid__": "61db7861-0565-4530-a4e5-4b47a5b36ace"
            }
          },
          {
            "frame": 0.1,
            "value": {
              "__uuid__": "acff4c1d-1b35-49f2-ac13-d04df94f2180"
            }
          },
          {
            "frame": 0.15,
            "value": {
              "__uuid__": "17839f5f-d5e8-4d35-b996-9018993c067f"
            }
          },
          {
            "frame": 0.2,
            "value": {
              "__uuid__": "e708e478-316a-4d8a-98e9-c6a34e4ecef7"
            }
          },
          {
            "frame": 0.25,
            "value": {
              "__uuid__": "0d88d691-03e0-4901-b127-5dc35b0e283d"
            }
          },
          {
            "frame": 0.3,
            "value": {
              "__uuid__": "b71e21ef-cb6a-44a7-8834-0d267273a517"
            }
          },
          {
            "frame": 0.35,
            "value": {
              "__uuid__": "e56f9484-b70b-49ba-b840-b05abf1ef0c1"
            }
          },
          {
            "frame": 0.4,
            "value": {
              "__uuid__": "e6d760a6-0206-47d1-b6ea-66fd26146499"
            }
          },
          {
            "frame": 0.45,
            "value": {
              "__uuid__": "64efd705-7bbd-4b16-a5c3-86d17644a9ea"
            }
          },
          {
            "frame": 0.5,
            "value": {
              "__uuid__": "27edb9b0-1ab4-4777-8ed6-97bcb1a85757"
            }
          },
          {
            "frame": 0.55,
            "value": {
              "__uuid__": "c0ab1265-f94a-49a8-96b4-cb9f00eeea3c"
            }
          }
        ]
      }
    }
  },
  "events": []
}