{
  "__type__": "cc.SpriteFrame",
  "content": {
    "name": "Deer_EAT_Male_0150",
    "texture": "0db4d9cb-a969-4c34-a67a-5a29c2f4387f",
    "atlas": "",
    "rect": [
      49,
      59,
      127,
      188
    ],
    "offset": [
      -15.5,
      -25
    ],
    "originalSize": [
      256,
      256
    ],
    "capInsets": [
      0,
      0,
      0,
      0
    ]
  }
}