{
  "__type__": "cc.SpriteFrame",
  "content": {
    "name": "ElectricityFX39-0",
    "texture": "339b5578-d119-4ce8-9e1f-6a1487069a8b",
    "atlas": "",
    "rect": [
      173,
      167,
      68,
      78
    ],
    "offset": [
      82.5,
      -78
    ],
    "originalSize": [
      249,
      256
    ],
    "capInsets": [
      0,
      0,
      0,
      0
    ]
  }
}