{
  "__type__": "cc.SpriteFrame",
  "content": {
    "name": "Wild_Boar_IDLE_0070",
    "texture": "d33279e9-ffbe-4a8d-bdb0-b1b78eac7f9e",
    "atlas": "",
    "rect": [
      78,
      148,
      104,
      98
    ],
    "offset": [
      2,
      -69
    ],
    "originalSize": [
      256,
      256
    ],
    "capInsets": [
      0,
      0,
      0,
      0
    ]
  }
}