{
  "__type__": "cc.SpriteFrame",
  "content": {
    "name": "ElectricityFX1-3",
    "texture": "2df3222b-0d16-42c1-8a54-1509bbd6a69c",
    "atlas": "",
    "rect": [
      82,
      31,
      93,
      215
    ],
    "offset": [
      0.5,
      -14.5
    ],
    "originalSize": [
      256,
      248
    ],
    "capInsets": [
      0,
      0,
      0,
      0
    ]
  }
}