{
  "__type__": "cc.SpriteFrame",
  "content": {
    "name": "flower_1_5",
    "texture": "ea906d76-0f5c-44d3-ad22-7a2ce2b60b74",
    "atlas": "5e442f7a-2e12-4de0-94d4-ed93332c5635",
    "rect": [
      700,
      700,
      700,
      700
    ],
    "offset": [
      0,
      0
    ],
    "originalSize": [
      700,
      700
    ],
    "capInsets": [
      0,
      0,
      0,
      0
    ]
  }
}