{
  "__type__": "cc.AnimationClip",
  "_name": "game_title_glow",
  "_objFlags": 0,
  "_native": "",
  "_duration": 1.0833333333333333,
  "sample": 60,
  "speed": 0.75,
  "wrapMode": 2,
  "curveData": {
    "comps": {
      "cc.Sprite": {
        "spriteFrame": [
          {
            "frame": 0,
            "value": {
              "__uuid__": "da1596f3-c79f-4013-a377-593b839996dc"
            }
          },
          {
            "frame": 0.08333333333333333,
            "value": {
              "__uuid__": "9b323af8-6861-4dd1-a26d-c79dfedd2de0"
            }
          },
          {
            "frame": 0.16666666666666666,
            "value": {
              "__uuid__": "31de60bb-77fb-4797-923f-ba92d855f7a9"
            }
          },
          {
            "frame": 0.25,
            "value": {
              "__uuid__": "b5710ee1-07a0-4ca2-8d59-98f1ce3d16bf"
            }
          },
          {
            "frame": 0.3333333333333333,
            "value": {
              "__uuid__": "21cdb94e-b550-41fc-aeca-1486d63b884f"
            }
          },
          {
            "frame": 0.43333333333333335,
            "value": {
              "__uuid__": "f638dd53-62a2-403b-8b53-a0b939f6d548"
            }
          },
          {
            "frame": 0.55,
            "value": {
              "__uuid__": "d67c7174-088e-4e8d-b5f8-a1a8fb7d2dbe"
            }
          },
          {
            "frame": 0.65,
            "value": {
              "__uuid__": "f638dd53-62a2-403b-8b53-a0b939f6d548"
            }
          },
          {
            "frame": 0.7333333333333333,
            "value": {
              "__uuid__": "21cdb94e-b550-41fc-aeca-1486d63b884f"
            }
          },
          {
            "frame": 0.8166666666666667,
            "value": {
              "__uuid__": "b5710ee1-07a0-4ca2-8d59-98f1ce3d16bf"
            }
          },
          {
            "frame": 0.9,
            "value": {
              "__uuid__": "31de60bb-77fb-4797-923f-ba92d855f7a9"
            }
          },
          {
            "frame": 0.9833333333333333,
            "value": {
              "__uuid__": "9b323af8-6861-4dd1-a26d-c79dfedd2de0"
            }
          },
          {
            "frame": 1.0666666666666667,
            "value": {
              "__uuid__": "da1596f3-c79f-4013-a377-593b839996dc"
            }
          }
        ]
      }
    }
  },
  "events": []
}