{
  "__type__": "cc.SpriteFrame",
  "content": {
    "name": "13",
    "texture": "63d5d282-1f91-4bbf-8b11-c99791b2c675",
    "atlas": "",
    "rect": [
      5,
      0,
      267,
      222
    ],
    "offset": [
      0.5,
      0
    ],
    "originalSize": [
      276,
      222
    ],
    "capInsets": [
      0,
      0,
      0,
      0
    ]
  }
}