{
  "__type__": "cc.SpriteFrame",
  "content": {
    "name": "Wolf_IDLE_0040",
    "texture": "56ee2f4f-7bcd-4200-b621-183cd27f4edf",
    "atlas": "",
    "rect": [
      74,
      137,
      96,
      110
    ],
    "offset": [
      -6,
      -64
    ],
    "originalSize": [
      256,
      256
    ],
    "capInsets": [
      0,
      0,
      0,
      0
    ]
  }
}