{
  "__type__": "cc.SpriteFrame",
  "content": {
    "name": "Deer_RUN_Male_0100",
    "texture": "77cf9907-5ac2-40c3-9cf2-4e3d55beee31",
    "atlas": "",
    "rect": [
      61,
      46,
      152,
      164
    ],
    "offset": [
      9,
      0
    ],
    "originalSize": [
      256,
      256
    ],
    "capInsets": [
      0,
      0,
      0,
      0
    ]
  }
}