{
  "__type__": "cc.SpriteFrame",
  "content": {
    "name": "Deer_EAT_Male_0090",
    "texture": "d9af4b9e-2df8-4768-98cc-ee067ce85f4e",
    "atlas": "",
    "rect": [
      18,
      50,
      185,
      206
    ],
    "offset": [
      -17.5,
      -25
    ],
    "originalSize": [
      256,
      256
    ],
    "capInsets": [
      0,
      0,
      0,
      0
    ]
  }
}