{
  "__type__": "cc.SpriteFrame",
  "content": {
    "name": "thorn_3",
    "texture": "3b739c57-56cb-4237-a868-8a99eac375ec",
    "atlas": "54d007aa-7462-4193-abea-1e104a7dfec6",
    "rect": [
      0,
      650,
      1200,
      650
    ],
    "offset": [
      0,
      0
    ],
    "originalSize": [
      1200,
      650
    ],
    "capInsets": [
      0,
      0,
      0,
      0
    ]
  }
}