{
  "__type__": "cc.SpriteFrame",
  "content": {
    "name": "Bear_DEATH_0110",
    "texture": "9a409ac4-a539-42b4-b7c7-5c04f1b05344",
    "atlas": "",
    "rect": [
      208,
      3,
      140,
      244
    ],
    "offset": [
      86,
      3
    ],
    "originalSize": [
      384,
      256
    ],
    "capInsets": [
      0,
      0,
      0,
      0
    ]
  }
}