{
  "__type__": "cc.SpriteFrame",
  "content": {
    "name": "Wild_Boar_WALK_0060",
    "texture": "e53a95a7-8a8d-4384-97da-511c9302db41",
    "atlas": "",
    "rect": [
      56,
      146,
      127,
      101
    ],
    "offset": [
      -8.5,
      -68.5
    ],
    "originalSize": [
      256,
      256
    ],
    "capInsets": [
      0,
      0,
      0,
      0
    ]
  }
}