{
  "__type__": "cc.SpriteFrame",
  "content": {
    "name": "Deer_IDLE_Male_0220",
    "texture": "348c884a-7468-4f54-90d7-eaf002f8cdd0",
    "atlas": "",
    "rect": [
      24,
      33,
      178,
      223
    ],
    "offset": [
      -15,
      -16.5
    ],
    "originalSize": [
      256,
      256
    ],
    "capInsets": [
      0,
      0,
      0,
      0
    ]
  }
}