{
  "__type__": "cc.SpriteFrame",
  "content": {
    "name": "Bat_FLY_0020",
    "texture": "46c3fd66-13f8-4528-b683-03e095fd8c87",
    "atlas": "",
    "rect": [
      36,
      40,
      72,
      40
    ],
    "offset": [
      8,
      4
    ],
    "originalSize": [
      128,
      128
    ],
    "capInsets": [
      0,
      0,
      0,
      0
    ]
  }
}