{
  "__type__": "cc.AnimationClip",
  "_name": "HPGlowing",
  "_objFlags": 0,
  "_native": "",
  "_duration": 0.7666666666666667,
  "sample": 60,
  "speed": 0.5,
  "wrapMode": 2,
  "curveData": {
    "comps": {
      "cc.Sprite": {
        "spriteFrame": [
          {
            "frame": 0,
            "value": {
              "__uuid__": "bdc7f317-f1e3-4a41-8ebc-6955d4778280"
            }
          },
          {
            "frame": 0.08333333333333333,
            "value": {
              "__uuid__": "222f0482-c2d4-49d8-ac86-b0a33c19e106"
            }
          },
          {
            "frame": 0.16666666666666666,
            "value": {
              "__uuid__": "ad0cf126-9768-457b-963e-6f05f624a8f3"
            }
          },
          {
            "frame": 0.25,
            "value": {
              "__uuid__": "c67a96e3-3723-4346-94b7-c71d97ea6f99"
            }
          },
          {
            "frame": 0.3333333333333333,
            "value": {
              "__uuid__": "9a33ef4a-96e7-49c6-8a00-175cf14777ed"
            }
          },
          {
            "frame": 0.4166666666666667,
            "value": {
              "__uuid__": "b6a92424-49cb-4c18-b7b0-2537dd4feed0"
            }
          },
          {
            "frame": 0.5,
            "value": {
              "__uuid__": "02e892de-4b1d-4b8e-8375-a29cc86412c3"
            }
          },
          {
            "frame": 0.5833333333333334,
            "value": {
              "__uuid__": "7ee5538a-f275-4dc8-9db3-99bed30db230"
            }
          },
          {
            "frame": 0.6666666666666666,
            "value": {
              "__uuid__": "211b9b04-c767-4eed-825c-e15cdcd76d97"
            }
          },
          {
            "frame": 0.75,
            "value": {
              "__uuid__": "1c32e94b-3a6a-41e5-a736-c91debd17b59"
            }
          }
        ]
      }
    }
  },
  "events": []
}