{
  "__type__": "cc.AnimationClip",
  "_name": "PlayerSpinning",
  "_objFlags": 0,
  "_native": "",
  "_duration": 0.9333333333333333,
  "sample": 60,
  "speed": 3,
  "wrapMode": 2,
  "curveData": {
    "comps": {
      "cc.Sprite": {
        "spriteFrame": [
          {
            "frame": 0,
            "value": {
              "__uuid__": "72c41429-cf14-489f-bcf1-c9d2d4485f8b"
            }
          },
          {
            "frame": 0.08333333333333333,
            "value": {
              "__uuid__": "2026f455-c7c5-47c3-b548-8ff963f03775"
            }
          },
          {
            "frame": 0.16666666666666666,
            "value": {
              "__uuid__": "ef0558ea-7eea-4d9e-a9f1-2c816f09f105"
            }
          },
          {
            "frame": 0.25,
            "value": {
              "__uuid__": "d82b2a33-29c2-4a78-a8d8-1c095b314af1"
            }
          },
          {
            "frame": 0.3333333333333333,
            "value": {
              "__uuid__": "d9bbeb6b-fea2-4cdc-96d0-9087a047c7f6"
            }
          },
          {
            "frame": 0.4166666666666667,
            "value": {
              "__uuid__": "11039545-6200-4db9-b09a-7edb929877cd"
            }
          },
          {
            "frame": 0.5,
            "value": {
              "__uuid__": "6087aa1a-e360-4476-89aa-fc0051a731e1"
            }
          },
          {
            "frame": 0.5833333333333334,
            "value": {
              "__uuid__": "fc7ecc96-9a4c-4d05-a419-dcb29c5db4df"
            }
          },
          {
            "frame": 0.6666666666666666,
            "value": {
              "__uuid__": "1772b0e6-c8d2-44cb-8024-9908baf3faa4"
            }
          },
          {
            "frame": 0.75,
            "value": {
              "__uuid__": "742a5b87-2da4-4fc2-a8d3-68bf8ae9212a"
            }
          },
          {
            "frame": 0.8333333333333334,
            "value": {
              "__uuid__": "3636ee77-18ba-4e3c-a9c2-3d6d537d6d46"
            }
          },
          {
            "frame": 0.9166666666666666,
            "value": {
              "__uuid__": "af45f0f1-220b-4eec-860c-c76a8138b38d"
            }
          }
        ]
      }
    }
  },
  "events": []
}