{
  "__type__": "cc.AnimationClip",
  "_name": "PlayerAttack",
  "_objFlags": 0,
  "_native": "",
  "_duration": 1.7666666666666666,
  "sample": 60,
  "speed": 2,
  "wrapMode": 1,
  "curveData": {
    "comps": {
      "cc.Sprite": {
        "spriteFrame": [
          {
            "frame": 0,
            "value": {
              "__uuid__": "ace1a785-2a3a-4611-985a-6a8bce5ee126"
            }
          },
          {
            "frame": 0.08333333333333333,
            "value": {
              "__uuid__": "120aab06-8bc3-4b82-9df6-2f26422d109c"
            }
          },
          {
            "frame": 0.16666666666666666,
            "value": {
              "__uuid__": "6419a126-93eb-4f23-9def-96ef1ff74801"
            }
          },
          {
            "frame": 0.25,
            "value": {
              "__uuid__": "4acad8ee-ffb6-4891-978f-c4dcc7403cb5"
            }
          },
          {
            "frame": 0.3333333333333333,
            "value": {
              "__uuid__": "8a914eb7-c21c-4b06-84c1-72cb066bdd12"
            }
          },
          {
            "frame": 0.4166666666666667,
            "value": {
              "__uuid__": "9d11f327-03d4-4338-8d00-3b5fcb4c249b"
            }
          },
          {
            "frame": 0.5,
            "value": {
              "__uuid__": "855b121a-30e3-41f1-8c15-15f332c8ddd9"
            }
          },
          {
            "frame": 0.5833333333333334,
            "value": {
              "__uuid__": "8c6c9417-d851-4e21-886c-91898a0ce7fc"
            }
          },
          {
            "frame": 0.6666666666666666,
            "value": {
              "__uuid__": "507183c3-5043-4eb8-acd6-ed1401d9661b"
            }
          },
          {
            "frame": 0.75,
            "value": {
              "__uuid__": "53aaac43-64d9-4406-93e4-03a3f3ff25ba"
            }
          },
          {
            "frame": 0.8333333333333334,
            "value": {
              "__uuid__": "4b26dcce-e929-43b5-808f-7d2f912198fb"
            }
          },
          {
            "frame": 0.9166666666666666,
            "value": {
              "__uuid__": "b3b835fc-2a2c-4aa5-9cfb-fe87d029c14c"
            }
          },
          {
            "frame": 1,
            "value": {
              "__uuid__": "ea6d86d7-79bd-4d8b-91aa-23558aaf2ec0"
            }
          },
          {
            "frame": 1.0833333333333333,
            "value": {
              "__uuid__": "79763b56-e993-4967-bccf-73c3dc45b5ac"
            }
          },
          {
            "frame": 1.1666666666666667,
            "value": {
              "__uuid__": "1c09b527-fc75-4243-af6a-10c4ef4c67f8"
            }
          },
          {
            "frame": 1.25,
            "value": {
              "__uuid__": "0a8dcc5d-5ea6-48cb-8a96-a558c425de83"
            }
          },
          {
            "frame": 1.3333333333333333,
            "value": {
              "__uuid__": "40945303-d00c-4cc7-895b-e8fe8309dd91"
            }
          },
          {
            "frame": 1.4166666666666667,
            "value": {
              "__uuid__": "7a2fb511-e829-411f-bf2f-2309de3c2346"
            }
          },
          {
            "frame": 1.5,
            "value": {
              "__uuid__": "10a5ca9f-8268-4469-8c78-d24c1d16c28b"
            }
          },
          {
            "frame": 1.5833333333333333,
            "value": {
              "__uuid__": "adb8a210-cc92-418c-8d9b-7fca20954411"
            }
          },
          {
            "frame": 1.6666666666666667,
            "value": {
              "__uuid__": "eca8c58d-3679-43b9-ad8d-13c02375c783"
            }
          },
          {
            "frame": 1.75,
            "value": {
              "__uuid__": "c4d828f1-2a6e-4932-b41d-e3adfc8951e2"
            }
          }
        ]
      }
    }
  },
  "events": []
}