{
  "__type__": "cc.SpriteFrame",
  "content": {
    "name": "24",
    "texture": "25353b00-51d1-4f3e-9161-2e57641e5cf3",
    "atlas": "",
    "rect": [
      5,
      23,
      200,
      165
    ],
    "offset": [
      0,
      -0.5
    ],
    "originalSize": [
      210,
      210
    ],
    "capInsets": [
      0,
      0,
      0,
      0
    ]
  }
}