{
  "__type__": "cc.SpriteFrame",
  "content": {
    "name": "Wild_Boar_IDLE_0080",
    "texture": "0c8d2c06-2803-4028-bbff-fb5091ac446d",
    "atlas": "",
    "rect": [
      73,
      150,
      109,
      96
    ],
    "offset": [
      -0.5,
      -70
    ],
    "originalSize": [
      256,
      256
    ],
    "capInsets": [
      0,
      0,
      0,
      0
    ]
  }
}