{
  "__type__": "cc.SpriteFrame",
  "content": {
    "name": "Bear_EAT_0070",
    "texture": "9ee746c7-7bc2-493d-9bfa-e81ca70cc9d3",
    "atlas": "",
    "rect": [
      76,
      125,
      182,
      122
    ],
    "offset": [
      -25,
      -58
    ],
    "originalSize": [
      384,
      256
    ],
    "capInsets": [
      0,
      0,
      0,
      0
    ]
  }
}