{
  "__type__": "cc.SpriteFrame",
  "content": {
    "name": "stone_tablet_idle_3",
    "texture": "32c9d6f7-52ab-4497-9f3b-ce480ba830d0",
    "atlas": "e6fcf1b6-9804-4d5e-9098-66b01d8fe950",
    "rect": [
      1800,
      0,
      900,
      3800
    ],
    "offset": [
      0,
      0
    ],
    "originalSize": [
      900,
      3800
    ],
    "capInsets": [
      0,
      0,
      0,
      0
    ]
  }
}