{
  "__type__": "cc.SpriteFrame",
  "content": {
    "name": "1",
    "texture": "318a4598-a86a-46f4-b283-513abd857986",
    "atlas": "",
    "rect": [
      0,
      0,
      180,
      222
    ],
    "offset": [
      0,
      0
    ],
    "originalSize": [
      180,
      222
    ],
    "capInsets": [
      0,
      0,
      0,
      0
    ]
  }
}