{
  "__type__": "cc.SpriteFrame",
  "content": {
    "name": "Bat_FLY_Particle_0090",
    "texture": "1d2cd331-2ad1-4048-93dd-b6146031c358",
    "atlas": "",
    "rect": [
      10,
      54,
      108,
      41
    ],
    "offset": [
      0,
      -10.5
    ],
    "originalSize": [
      128,
      128
    ],
    "capInsets": [
      0,
      0,
      0,
      0
    ]
  }
}