{
  "__type__": "cc.SpriteFrame",
  "content": {
    "name": "Wolf_DEATH_0030",
    "texture": "0e594c04-6d45-4a76-b60a-0305e3a30628",
    "atlas": "",
    "rect": [
      59,
      145,
      122,
      102
    ],
    "offset": [
      -8,
      -68
    ],
    "originalSize": [
      256,
      256
    ],
    "capInsets": [
      0,
      0,
      0,
      0
    ]
  }
}