{
  "__type__": "cc.AnimationClip",
  "_name": "electricityanim4",
  "_objFlags": 0,
  "_native": "",
  "_duration": 1.9333333333333333,
  "sample": 60,
  "speed": 1,
  "wrapMode": 2,
  "curveData": {
    "comps": {
      "cc.Sprite": {
        "spriteFrame": [
          {
            "frame": 0,
            "value": {
              "__uuid__": "bfad75b7-f392-4f87-8748-af48d91a7a55"
            }
          },
          {
            "frame": 0.08333333333333333,
            "value": {
              "__uuid__": "c3d7a2ef-39a3-42f0-bd63-040b40bf0de3"
            }
          },
          {
            "frame": 0.16666666666666666,
            "value": {
              "__uuid__": "32cf6c24-25bf-463e-9870-3dbcacb43529"
            }
          },
          {
            "frame": 0.25,
            "value": {
              "__uuid__": "40812a43-3e17-4e8b-9cd3-b966f8439d45"
            }
          },
          {
            "frame": 0.3333333333333333,
            "value": {
              "__uuid__": "871cade2-a0f1-4f3f-b122-7b4ff935e060"
            }
          },
          {
            "frame": 0.4166666666666667,
            "value": {
              "__uuid__": "ccf26682-b6ad-44e9-b6ac-3d467faa3197"
            }
          },
          {
            "frame": 0.5,
            "value": {
              "__uuid__": "e291a70c-e8a8-46e0-a496-ce25fd3caae8"
            }
          },
          {
            "frame": 0.5833333333333334,
            "value": {
              "__uuid__": "bf06d60c-2f0a-4fe4-b7e8-e0f039c9c8ac"
            }
          },
          {
            "frame": 0.6666666666666666,
            "value": {
              "__uuid__": "43202a39-7013-475f-8584-d55897a6ad0a"
            }
          },
          {
            "frame": 0.75,
            "value": {
              "__uuid__": "287e34b9-e9b9-4b4a-8289-765c1afaea87"
            }
          },
          {
            "frame": 0.8333333333333334,
            "value": {
              "__uuid__": "1f236c7b-8e23-41e1-bd40-a4616c46f588"
            }
          },
          {
            "frame": 0.9166666666666666,
            "value": {
              "__uuid__": "e7fefa16-a870-4740-97a0-544d685683d9"
            }
          },
          {
            "frame": 1,
            "value": {
              "__uuid__": "f5ff6558-7422-482b-92a8-6ee01a2663a9"
            }
          },
          {
            "frame": 1.0833333333333333,
            "value": {
              "__uuid__": "a2e45659-4328-4851-a168-8c34195c0d90"
            }
          },
          {
            "frame": 1.1666666666666667,
            "value": {
              "__uuid__": "215d480e-8d80-41fe-8054-8378fa59f3cb"
            }
          },
          {
            "frame": 1.25,
            "value": {
              "__uuid__": "0cecb6ef-325c-4d21-b091-00c0818690a0"
            }
          },
          {
            "frame": 1.3333333333333333,
            "value": {
              "__uuid__": "31217d89-3b21-4ad9-bcc9-353994d7d7f2"
            }
          },
          {
            "frame": 1.4166666666666667,
            "value": {
              "__uuid__": "4b84dd19-4ce9-4f2d-b99c-371c8e7d2544"
            }
          },
          {
            "frame": 1.5,
            "value": {
              "__uuid__": "372af8e1-75d2-4d5c-a962-4e31986ad890"
            }
          },
          {
            "frame": 1.5833333333333333,
            "value": {
              "__uuid__": "7efb415a-c389-4367-b391-da8b785a2770"
            }
          },
          {
            "frame": 1.6666666666666667,
            "value": {
              "__uuid__": "327c322b-d708-40e6-8392-ec506ac2c12a"
            }
          },
          {
            "frame": 1.75,
            "value": {
              "__uuid__": "3de2966e-5204-457a-8380-aee1d541e4b7"
            }
          },
          {
            "frame": 1.8333333333333333,
            "value": {
              "__uuid__": "1bcc0d96-1a88-46bd-8a7d-3a2935b2b9ae"
            }
          },
          {
            "frame": 1.9166666666666667,
            "value": {
              "__uuid__": "bfad75b7-f392-4f87-8748-af48d91a7a55"
            }
          }
        ]
      }
    }
  },
  "events": []
}