{
  "__type__": "cc.SpriteFrame",
  "content": {
    "name": "Bear_RUN_0100",
    "texture": "7cd00e2b-de31-481d-a28f-fe758a4ccb7e",
    "atlas": "",
    "rect": [
      84,
      116,
      199,
      133
    ],
    "offset": [
      -8.5,
      -54.5
    ],
    "originalSize": [
      384,
      256
    ],
    "capInsets": [
      0,
      0,
      0,
      0
    ]
  }
}