{
  "__type__": "cc.SpriteFrame",
  "content": {
    "name": "Rabbit_IDLE_0000",
    "texture": "64c253d5-bd44-405b-b25b-a992cd1f72e1",
    "atlas": "",
    "rect": [
      34,
      74,
      50,
      45
    ],
    "offset": [
      -5,
      -32.5
    ],
    "originalSize": [
      128,
      128
    ],
    "capInsets": [
      0,
      0,
      0,
      0
    ]
  }
}