{
  "__type__": "cc.SpriteFrame",
  "content": {
    "name": "ElectricityFX15-1",
    "texture": "cda8fb69-db81-4fdb-81e4-cb8532179433",
    "atlas": "",
    "rect": [
      28,
      147,
      188,
      94
    ],
    "offset": [
      -6,
      -66
    ],
    "originalSize": [
      256,
      256
    ],
    "capInsets": [
      0,
      0,
      0,
      0
    ]
  }
}