{
  "__type__": "cc.SpriteFrame",
  "content": {
    "name": "ElectricityFX25-3",
    "texture": "34abaa57-a2d5-4e8e-92df-438cce12bd92",
    "atlas": "",
    "rect": [
      61,
      12,
      157,
      239
    ],
    "offset": [
      11.5,
      -4
    ],
    "originalSize": [
      256,
      255
    ],
    "capInsets": [
      0,
      0,
      0,
      0
    ]
  }
}