{
  "__type__": "cc.SpriteFrame",
  "content": {
    "name": "Deer_IDLE_Male_0000",
    "texture": "1d8376b4-34f5-47c1-8a55-53dfcb933d41",
    "atlas": "",
    "rect": [
      51,
      59,
      125,
      188
    ],
    "offset": [
      -14.5,
      -25
    ],
    "originalSize": [
      256,
      256
    ],
    "capInsets": [
      0,
      0,
      0,
      0
    ]
  }
}