{
  "__type__": "cc.SpriteFrame",
  "content": {
    "name": "Deer_DEATH_Male_0090",
    "texture": "1ff33118-ccd0-469d-a723-d5ffc9c864a6",
    "atlas": "",
    "rect": [
      43,
      115,
      174,
      141
    ],
    "offset": [
      2,
      -57.5
    ],
    "originalSize": [
      256,
      256
    ],
    "capInsets": [
      0,
      0,
      0,
      0
    ]
  }
}