{
  "__type__": "cc.SpriteFrame",
  "content": {
    "name": "Deer_IDLE_Male_0010",
    "texture": "7fe3780d-1f01-4b75-9a3b-0589298c402c",
    "atlas": "",
    "rect": [
      57,
      59,
      118,
      188
    ],
    "offset": [
      -12,
      -25
    ],
    "originalSize": [
      256,
      256
    ],
    "capInsets": [
      0,
      0,
      0,
      0
    ]
  }
}