{
  "__type__": "cc.SpriteFrame",
  "content": {
    "name": "Deer_DEATH_Female_0080",
    "texture": "faf52584-1759-4898-934d-8b9b854e6984",
    "atlas": "",
    "rect": [
      60,
      137,
      128,
      110
    ],
    "offset": [
      -4,
      -64
    ],
    "originalSize": [
      256,
      256
    ],
    "capInsets": [
      0,
      0,
      0,
      0
    ]
  }
}