{
  "__type__": "cc.SpriteFrame",
  "content": {
    "name": "float_island_2",
    "texture": "b72bb196-192b-4d06-94bd-81f74e589245",
    "atlas": "",
    "rect": [
      0,
      0,
      1169,
      1265
    ],
    "offset": [
      0,
      0
    ],
    "originalSize": [
      1169,
      1265
    ],
    "capInsets": [
      0,
      0,
      0,
      0
    ]
  }
}