{
  "__type__": "cc.SpriteFrame",
  "content": {
    "name": "37",
    "texture": "7b22dc4a-db08-4515-ab2a-9e9f2c014fbf",
    "atlas": "",
    "rect": [
      14,
      0,
      197,
      224
    ],
    "offset": [
      0.5,
      0
    ],
    "originalSize": [
      224,
      224
    ],
    "capInsets": [
      0,
      0,
      0,
      0
    ]
  }
}