{
  "__type__": "cc.SpriteFrame",
  "content": {
    "name": "Wild_Boar_IDLE_0010",
    "texture": "55db5dd6-0a47-474f-9baa-b0254382521a",
    "atlas": "",
    "rect": [
      71,
      151,
      110,
      95
    ],
    "offset": [
      -2,
      -70.5
    ],
    "originalSize": [
      256,
      256
    ],
    "capInsets": [
      0,
      0,
      0,
      0
    ]
  }
}