{
  "__type__": "cc.SpriteFrame",
  "content": {
    "name": "19",
    "texture": "a4b73722-a798-4028-934b-c379305cbd8c",
    "atlas": "",
    "rect": [
      0,
      0,
      222,
      199
    ],
    "offset": [
      0,
      0
    ],
    "originalSize": [
      222,
      199
    ],
    "capInsets": [
      0,
      0,
      0,
      0
    ]
  }
}