{
  "__type__": "cc.SpriteFrame",
  "content": {
    "name": "Bear_EAT_0010",
    "texture": "2251be03-9c4c-4403-bfd0-73ca9e78917c",
    "atlas": "",
    "rect": [
      81,
      121,
      181,
      126
    ],
    "offset": [
      -20.5,
      -56
    ],
    "originalSize": [
      384,
      256
    ],
    "capInsets": [
      0,
      0,
      0,
      0
    ]
  }
}