{
  "__type__": "cc.SpriteFrame",
  "content": {
    "name": "42",
    "texture": "0ed9dbf9-8a2d-45dc-ba13-e3c4e8706920",
    "atlas": "",
    "rect": [
      0,
      0,
      305,
      221
    ],
    "offset": [
      -0.5,
      0
    ],
    "originalSize": [
      306,
      221
    ],
    "capInsets": [
      0,
      0,
      0,
      0
    ]
  }
}