{
  "__type__": "cc.SpriteFrame",
  "content": {
    "name": "Wolf_RUN_0140",
    "texture": "8634f744-ff10-4b92-bd2b-25c3ed868d75",
    "atlas": "",
    "rect": [
      59,
      147,
      140,
      99
    ],
    "offset": [
      1,
      -68.5
    ],
    "originalSize": [
      256,
      256
    ],
    "capInsets": [
      0,
      0,
      0,
      0
    ]
  }
}