{
  "__type__": "cc.SpriteFrame",
  "content": {
    "name": "Deer_IDLE_Male_0120",
    "texture": "0ff76840-1a35-4619-a5d1-ecfded6a35f6",
    "atlas": "",
    "rect": [
      51,
      59,
      125,
      188
    ],
    "offset": [
      -14.5,
      -25
    ],
    "originalSize": [
      256,
      256
    ],
    "capInsets": [
      0,
      0,
      0,
      0
    ]
  }
}