{
  "__type__": "cc.SpriteFrame",
  "content": {
    "name": "fairy_words_4",
    "texture": "2a97cba3-d664-464f-a7a4-582241273564",
    "atlas": "f2554cf3-0d09-4f25-9185-fbaa5a95198e",
    "rect": [
      600,
      0,
      200,
      900
    ],
    "offset": [
      0,
      0
    ],
    "originalSize": [
      200,
      900
    ],
    "capInsets": [
      0,
      0,
      0,
      0
    ]
  }
}