{
  "__type__": "cc.SpriteFrame",
  "content": {
    "name": "Deer_WALK_Male_0050",
    "texture": "b173a6d8-6f43-45fd-9808-a66889585098",
    "atlas": "",
    "rect": [
      25,
      32,
      180,
      224
    ],
    "offset": [
      -13,
      -16
    ],
    "originalSize": [
      256,
      256
    ],
    "capInsets": [
      0,
      0,
      0,
      0
    ]
  }
}