{
  "__type__": "cc.SpriteFrame",
  "content": {
    "name": "Rabbit_RUN_0020",
    "texture": "2597038d-b93c-4afa-8e32-5332c5134d00",
    "atlas": "",
    "rect": [
      36,
      76,
      49,
      42
    ],
    "offset": [
      -3.5,
      -33
    ],
    "originalSize": [
      128,
      128
    ],
    "capInsets": [
      0,
      0,
      0,
      0
    ]
  }
}