{
  "__type__": "cc.AnimationClip",
  "_name": "wild_boar_eat",
  "_objFlags": 0,
  "_native": "",
  "_duration": 0.85,
  "sample": 20,
  "speed": 0.3,
  "wrapMode": 1,
  "curveData": {
    "comps": {
      "cc.Sprite": {
        "spriteFrame": [
          {
            "frame": 0,
            "value": {
              "__uuid__": "e7ff9b96-dcb4-41cf-b7a1-504e339de46d"
            }
          },
          {
            "frame": 0.05,
            "value": {
              "__uuid__": "c1f27fe8-309d-40ab-8351-d395052b04de"
            }
          },
          {
            "frame": 0.1,
            "value": {
              "__uuid__": "eafb9e7d-ecba-41b2-be61-bb57f5915daf"
            }
          },
          {
            "frame": 0.15,
            "value": {
              "__uuid__": "e51661d3-aa90-490f-b445-a59df07ba208"
            }
          },
          {
            "frame": 0.2,
            "value": {
              "__uuid__": "6e346130-6580-4584-858f-d69313559da3"
            }
          },
          {
            "frame": 0.25,
            "value": {
              "__uuid__": "97ab8937-2854-4e50-9f8c-a8d21623d30b"
            }
          },
          {
            "frame": 0.3,
            "value": {
              "__uuid__": "6e346130-6580-4584-858f-d69313559da3"
            }
          },
          {
            "frame": 0.35,
            "value": {
              "__uuid__": "d7e562e4-9360-4eb1-a8bb-726443b8084e"
            }
          },
          {
            "frame": 0.4,
            "value": {
              "__uuid__": "562ae5bf-3a19-46e6-932e-074bd7ba34ff"
            }
          },
          {
            "frame": 0.45,
            "value": {
              "__uuid__": "9602fd39-ff41-47d8-b488-18e634233b68"
            }
          },
          {
            "frame": 0.5,
            "value": {
              "__uuid__": "e5a0740e-185b-4289-83b0-c2fefae26727"
            }
          },
          {
            "frame": 0.55,
            "value": {
              "__uuid__": "6ef34eb4-3382-4da1-9b68-554eb87b7088"
            }
          },
          {
            "frame": 0.6,
            "value": {
              "__uuid__": "802ab21e-0066-4889-b38e-14baabd946f5"
            }
          },
          {
            "frame": 0.65,
            "value": {
              "__uuid__": "78d401a2-d254-4f42-b170-9de2314de797"
            }
          },
          {
            "frame": 0.7,
            "value": {
              "__uuid__": "48cd7dc9-e5ab-47e0-9a74-7d0251a48b78"
            }
          },
          {
            "frame": 0.75,
            "value": {
              "__uuid__": "a4fec799-60b6-409b-b983-03bc1a0113ee"
            }
          },
          {
            "frame": 0.8,
            "value": {
              "__uuid__": "e8935375-37a3-47d8-bf42-4fb52e584a36"
            }
          }
        ]
      }
    }
  },
  "events": []
}