{
  "__type__": "cc.SpriteFrame",
  "content": {
    "name": "Rabbit_DEATH_0140",
    "texture": "517f8b68-191b-44b0-8838-6c5f25494e08",
    "atlas": "",
    "rect": [
      28,
      88,
      71,
      31
    ],
    "offset": [
      -0.5,
      -39.5
    ],
    "originalSize": [
      128,
      128
    ],
    "capInsets": [
      0,
      0,
      0,
      0
    ]
  }
}