{
  "__type__": "cc.SpriteFrame",
  "content": {
    "name": "3",
    "texture": "63cf9f0a-4ea5-45f9-818b-3a6ff3d91bf3",
    "atlas": "",
    "rect": [
      0,
      1,
      850,
      848
    ],
    "offset": [
      0,
      0
    ],
    "originalSize": [
      850,
      850
    ],
    "capInsets": [
      0,
      0,
      0,
      0
    ]
  }
}