{
  "__type__": "cc.SpriteFrame",
  "content": {
    "name": "Bat_FLY_Particle_0020",
    "texture": "51a8d97c-2fb8-4a0f-a89c-51b22f615fa7",
    "atlas": "",
    "rect": [
      6,
      52,
      116,
      44
    ],
    "offset": [
      0,
      -10
    ],
    "originalSize": [
      128,
      128
    ],
    "capInsets": [
      0,
      0,
      0,
      0
    ]
  }
}