{
  "__type__": "cc.SpriteFrame",
  "content": {
    "name": "10",
    "texture": "f8e25dee-39ea-404f-984e-0fb9cce30def",
    "atlas": "",
    "rect": [
      36,
      38,
      237,
      234
    ],
    "offset": [
      -0.5,
      0
    ],
    "originalSize": [
      310,
      310
    ],
    "capInsets": [
      0,
      0,
      0,
      0
    ]
  }
}