{
  "__type__": "cc.SpriteFrame",
  "content": {
    "name": "game_title_5",
    "texture": "7449cf63-a2e7-4d86-ba52-dfc970b94d97",
    "atlas": "8067edbb-c2c8-4033-80df-16cfc99c7669",
    "rect": [
      0,
      600,
      600,
      300
    ],
    "offset": [
      0,
      0
    ],
    "originalSize": [
      600,
      300
    ],
    "capInsets": [
      0,
      0,
      0,
      0
    ]
  }
}