{
  "__type__": "cc.SpriteFrame",
  "content": {
    "name": "Rabbit_DEATH_0100",
    "texture": "c217c963-51d6-4f9b-a680-a9c38f567eae",
    "atlas": "",
    "rect": [
      26,
      87,
      74,
      34
    ],
    "offset": [
      -1,
      -40
    ],
    "originalSize": [
      128,
      128
    ],
    "capInsets": [
      0,
      0,
      0,
      0
    ]
  }
}