{
  "__type__": "cc.SpriteFrame",
  "content": {
    "name": "ElectricityFX25-5",
    "texture": "d64fc9b2-ebe4-45b1-81dc-d46a02287d55",
    "atlas": "",
    "rect": [
      116,
      187,
      28,
      27
    ],
    "offset": [
      2,
      -73
    ],
    "originalSize": [
      256,
      255
    ],
    "capInsets": [
      0,
      0,
      0,
      0
    ]
  }
}