{
  "__type__": "cc.SpriteFrame",
  "content": {
    "name": "ElectricityFX38-4",
    "texture": "98f0bac7-750d-4e1a-8d27-c8a2e4986856",
    "atlas": "",
    "rect": [
      64,
      19,
      113,
      144
    ],
    "offset": [
      -1.5,
      37
    ],
    "originalSize": [
      244,
      256
    ],
    "capInsets": [
      0,
      0,
      0,
      0
    ]
  }
}