{
  "__type__": "cc.SpriteFrame",
  "content": {
    "name": "Deer_WALK_Male_0140",
    "texture": "91254d2c-a129-49ac-a9f3-3d0f1cba3951",
    "atlas": "",
    "rect": [
      50,
      57,
      127,
      189
    ],
    "offset": [
      -14.5,
      -23.5
    ],
    "originalSize": [
      256,
      256
    ],
    "capInsets": [
      0,
      0,
      0,
      0
    ]
  }
}