{
  "__type__": "cc.SpriteFrame",
  "content": {
    "name": "16",
    "texture": "e10b2986-adaf-4e66-b267-a38c93baf0b1",
    "atlas": "",
    "rect": [
      5,
      0,
      180,
      191
    ],
    "offset": [
      0,
      0
    ],
    "originalSize": [
      190,
      191
    ],
    "capInsets": [
      0,
      0,
      0,
      0
    ]
  }
}