{
  "__type__": "cc.SpriteFrame",
  "content": {
    "name": "Bear_EAT_0005",
    "texture": "c7802947-cc58-471d-b9db-c09393158d80",
    "atlas": "",
    "rect": [
      80,
      115,
      185,
      132
    ],
    "offset": [
      -19.5,
      -53
    ],
    "originalSize": [
      384,
      256
    ],
    "capInsets": [
      0,
      0,
      0,
      0
    ]
  }
}