{
  "__type__": "cc.AnimationClip",
  "_name": "deer_final_male",
  "_objFlags": 0,
  "_native": "",
  "_duration": 3.9,
  "sample": 20,
  "speed": 0.5,
  "wrapMode": 1,
  "curveData": {
    "comps": {
      "cc.Sprite": {
        "spriteFrame": [
          {
            "frame": 0,
            "value": {
              "__uuid__": "7f82d22f-2852-49b0-bf52-f936aae6240f"
            }
          },
          {
            "frame": 0.05,
            "value": {
              "__uuid__": "364b660e-705d-4cd7-92c1-40a7c6d6611d"
            }
          },
          {
            "frame": 0.1,
            "value": {
              "__uuid__": "9f6d69c5-4ce9-4629-b292-293d0f2aa568"
            }
          },
          {
            "frame": 0.15,
            "value": {
              "__uuid__": "48c77e9a-518a-4b6b-8e1d-3b4afeecf19a"
            }
          },
          {
            "frame": 0.2,
            "value": {
              "__uuid__": "c47992ab-4117-4b73-8c7b-1d149d05e3b2"
            }
          },
          {
            "frame": 0.25,
            "value": {
              "__uuid__": "517f9410-1029-4a46-b101-fc69fa509743"
            }
          },
          {
            "frame": 0.3,
            "value": {
              "__uuid__": "3b2b5252-96c4-4cd4-b7c1-402418a9965f"
            }
          },
          {
            "frame": 0.35,
            "value": {
              "__uuid__": "3f4090d6-7806-490a-88ec-21d630627dd8"
            }
          },
          {
            "frame": 0.4,
            "value": {
              "__uuid__": "adbd9ee2-3eaf-45a6-bfe0-4274b0ce44b5"
            }
          },
          {
            "frame": 0.45,
            "value": {
              "__uuid__": "a2c478a9-fc7e-4a06-a537-3ede3862f143"
            }
          },
          {
            "frame": 0.5,
            "value": {
              "__uuid__": "96eeca75-fc0f-458a-bad1-a7b4a81a2b59"
            }
          },
          {
            "frame": 0.55,
            "value": {
              "__uuid__": "01d0a508-3dc6-493c-9584-8b6330714c07"
            }
          },
          {
            "frame": 0.6,
            "value": {
              "__uuid__": "01005ee7-2366-4fd1-9fc8-1ae893d58f92"
            }
          },
          {
            "frame": 0.65,
            "value": {
              "__uuid__": "4080761c-ee3b-4641-8d15-1ff509918f84"
            }
          },
          {
            "frame": 0.7,
            "value": {
              "__uuid__": "c331d4db-10fe-40c9-bf27-ff4bf1eca8fa"
            }
          },
          {
            "frame": 0.75,
            "value": {
              "__uuid__": "c2bfee8a-476f-47cb-a140-261c18a8d357"
            }
          },
          {
            "frame": 0.8,
            "value": {
              "__uuid__": "df79a6a6-8045-46bc-ad61-051e23b8c783"
            }
          },
          {
            "frame": 0.85,
            "value": {
              "__uuid__": "04d7c995-3794-40e1-af3e-095440bacc5e"
            }
          },
          {
            "frame": 0.9,
            "value": {
              "__uuid__": "236db456-f7d7-4364-94d8-cdd676a3170d"
            }
          },
          {
            "frame": 0.95,
            "value": {
              "__uuid__": "c65a0e51-c34c-42d9-a3f7-5d42c7b577db"
            }
          },
          {
            "frame": 1,
            "value": {
              "__uuid__": "e471cc47-d07b-4e38-8a29-d84a311c0928"
            }
          },
          {
            "frame": 1.05,
            "value": {
              "__uuid__": "d0ee4209-8d98-4a15-88a7-bbb5d5bb99ad"
            }
          },
          {
            "frame": 1.1,
            "value": {
              "__uuid__": "7d996969-d23e-4257-9a04-ffeac2035580"
            }
          },
          {
            "frame": 1.15,
            "value": {
              "__uuid__": "9b2f7c09-b26f-4f28-a669-d4ffeae476b9"
            }
          },
          {
            "frame": 1.2,
            "value": {
              "__uuid__": "a16bee0f-cade-4490-853f-c1a3fc083f57"
            }
          },
          {
            "frame": 1.25,
            "value": {
              "__uuid__": "cff07553-412e-4391-8380-d72435f20eb1"
            }
          },
          {
            "frame": 1.3,
            "value": {
              "__uuid__": "2dba6f1c-98d7-4405-b4dc-83bf4b54cf1f"
            }
          },
          {
            "frame": 1.35,
            "value": {
              "__uuid__": "60bdeab8-05fb-4b3e-be58-57f80ec2c43d"
            }
          },
          {
            "frame": 1.4,
            "value": {
              "__uuid__": "f8f514e6-e9e2-45cf-be09-36cf7737fcb1"
            }
          },
          {
            "frame": 1.45,
            "value": {
              "__uuid__": "91acfc7c-d578-4f9f-a04e-51e8666ccafb"
            }
          },
          {
            "frame": 1.5,
            "value": {
              "__uuid__": "21206bee-38a2-40ca-9bb1-ebfe64a4b0fd"
            }
          },
          {
            "frame": 1.55,
            "value": {
              "__uuid__": "ee248f40-eb5e-45db-9404-9f9e93ee16cb"
            }
          },
          {
            "frame": 1.6,
            "value": {
              "__uuid__": "0f629779-e76a-4373-a031-27d5086fa825"
            }
          },
          {
            "frame": 1.65,
            "value": {
              "__uuid__": "43ecd9b2-9dc8-4c1f-8393-de57668c03f8"
            }
          },
          {
            "frame": 1.7,
            "value": {
              "__uuid__": "b0093b56-c547-4bc1-873f-45eb52062cb3"
            }
          },
          {
            "frame": 1.75,
            "value": {
              "__uuid__": "8bc5d78a-fc08-45ee-8103-993bb7074374"
            }
          },
          {
            "frame": 1.8,
            "value": {
              "__uuid__": "6caade83-fa24-45d4-bf3c-9366b28e1cdb"
            }
          },
          {
            "frame": 1.85,
            "value": {
              "__uuid__": "ff69c0a3-27b8-4374-936a-77805fe6e097"
            }
          },
          {
            "frame": 1.9,
            "value": {
              "__uuid__": "45cc0076-d048-47f5-adf9-75c34171ad9a"
            }
          },
          {
            "frame": 1.95,
            "value": {
              "__uuid__": "0eb9da51-d619-4cfe-8c8d-8a74636615d8"
            }
          },
          {
            "frame": 2,
            "value": {
              "__uuid__": "40c9fb16-47c2-4c7f-bf20-7040577dbea3"
            }
          },
          {
            "frame": 2.05,
            "value": {
              "__uuid__": "55ede447-7ed1-46f0-b9f7-a32b01bcf6a4"
            }
          },
          {
            "frame": 2.1,
            "value": {
              "__uuid__": "17b199f1-752b-4aed-9149-f739ba584fb4"
            }
          },
          {
            "frame": 2.15,
            "value": {
              "__uuid__": "6ad11974-cd7e-4d99-98b1-f9d936a7cafc"
            }
          },
          {
            "frame": 2.2,
            "value": {
              "__uuid__": "11822cbb-e989-40c6-bda1-865f476c6db8"
            }
          },
          {
            "frame": 2.25,
            "value": {
              "__uuid__": "f4117535-dcda-458b-b327-b6427e6778a4"
            }
          },
          {
            "frame": 2.3,
            "value": {
              "__uuid__": "ac80feb6-843c-4a7e-b98a-659d4081857c"
            }
          },
          {
            "frame": 2.35,
            "value": {
              "__uuid__": "f38bbdd7-7ced-46ae-bca8-5c496d2c809b"
            }
          },
          {
            "frame": 2.4,
            "value": {
              "__uuid__": "0eb8586b-fc33-4790-b85e-1bcff45986bc"
            }
          },
          {
            "frame": 2.45,
            "value": {
              "__uuid__": "8c144591-1eba-4a01-9fcb-eaa8cbc663db"
            }
          },
          {
            "frame": 2.5,
            "value": {
              "__uuid__": "22a47a30-bdc2-4fb4-a49e-eeb8cd4345b5"
            }
          },
          {
            "frame": 2.55,
            "value": {
              "__uuid__": "ce679523-20b2-46ed-9d67-1a2eadc3338b"
            }
          },
          {
            "frame": 2.6,
            "value": {
              "__uuid__": "44db37af-a2a2-4dde-a9d4-74b9561ec0c0"
            }
          },
          {
            "frame": 2.65,
            "value": {
              "__uuid__": "292b486a-c71f-417a-a76b-4008944e4405"
            }
          },
          {
            "frame": 2.7,
            "value": {
              "__uuid__": "bec72f4d-fa65-47e2-9eb7-4653ab91a6fd"
            }
          },
          {
            "frame": 2.8,
            "value": {
              "__uuid__": "236db456-f7d7-4364-94d8-cdd676a3170d"
            }
          },
          {
            "frame": 2.9,
            "value": {
              "__uuid__": "c65a0e51-c34c-42d9-a3f7-5d42c7b577db"
            }
          },
          {
            "frame": 3,
            "value": {
              "__uuid__": "e471cc47-d07b-4e38-8a29-d84a311c0928"
            }
          },
          {
            "frame": 3.1,
            "value": {
              "__uuid__": "7f82d22f-2852-49b0-bf52-f936aae6240f"
            }
          },
          {
            "frame": 3.15,
            "value": {
              "__uuid__": "364b660e-705d-4cd7-92c1-40a7c6d6611d"
            }
          },
          {
            "frame": 3.2,
            "value": {
              "__uuid__": "9f6d69c5-4ce9-4629-b292-293d0f2aa568"
            }
          },
          {
            "frame": 3.25,
            "value": {
              "__uuid__": "48c77e9a-518a-4b6b-8e1d-3b4afeecf19a"
            }
          },
          {
            "frame": 3.3,
            "value": {
              "__uuid__": "c47992ab-4117-4b73-8c7b-1d149d05e3b2"
            }
          },
          {
            "frame": 3.35,
            "value": {
              "__uuid__": "517f9410-1029-4a46-b101-fc69fa509743"
            }
          },
          {
            "frame": 3.4,
            "value": {
              "__uuid__": "3b2b5252-96c4-4cd4-b7c1-402418a9965f"
            }
          },
          {
            "frame": 3.45,
            "value": {
              "__uuid__": "3f4090d6-7806-490a-88ec-21d630627dd8"
            }
          },
          {
            "frame": 3.5,
            "value": {
              "__uuid__": "adbd9ee2-3eaf-45a6-bfe0-4274b0ce44b5"
            }
          },
          {
            "frame": 3.55,
            "value": {
              "__uuid__": "a2c478a9-fc7e-4a06-a537-3ede3862f143"
            }
          },
          {
            "frame": 3.6,
            "value": {
              "__uuid__": "96eeca75-fc0f-458a-bad1-a7b4a81a2b59"
            }
          },
          {
            "frame": 3.65,
            "value": {
              "__uuid__": "01d0a508-3dc6-493c-9584-8b6330714c07"
            }
          },
          {
            "frame": 3.7,
            "value": {
              "__uuid__": "01005ee7-2366-4fd1-9fc8-1ae893d58f92"
            }
          },
          {
            "frame": 3.75,
            "value": {
              "__uuid__": "4080761c-ee3b-4641-8d15-1ff509918f84"
            }
          },
          {
            "frame": 3.8,
            "value": {
              "__uuid__": "c331d4db-10fe-40c9-bf27-ff4bf1eca8fa"
            }
          },
          {
            "frame": 3.85,
            "value": {
              "__uuid__": "c2bfee8a-476f-47cb-a140-261c18a8d357"
            }
          }
        ]
      }
    }
  },
  "events": []
}