{
  "__type__": "cc.SpriteFrame",
  "content": {
    "name": "Rabbit_DEATH_0020",
    "texture": "2466d7d2-0e56-4542-8d75-54c9a68649aa",
    "atlas": "",
    "rect": [
      35,
      72,
      49,
      47
    ],
    "offset": [
      -4.5,
      -31.5
    ],
    "originalSize": [
      128,
      128
    ],
    "capInsets": [
      0,
      0,
      0,
      0
    ]
  }
}