{
  "__type__": "cc.AnimationClip",
  "_name": "PlayerIdle",
  "_objFlags": 0,
  "_native": "",
  "_duration": 0.43333333333333335,
  "sample": 60,
  "speed": 0.8,
  "wrapMode": 2,
  "curveData": {
    "comps": {
      "cc.Sprite": {
        "spriteFrame": [
          {
            "frame": 0,
            "value": {
              "__uuid__": "af0170df-3101-415c-a590-ff54869397fc"
            }
          },
          {
            "frame": 0.08333333333333333,
            "value": {
              "__uuid__": "54486541-e6f8-4274-86e4-27a02b4f2856"
            }
          },
          {
            "frame": 0.16666666666666666,
            "value": {
              "__uuid__": "3f3a7b4f-f607-4d41-8c89-cc0bc5a2d03a"
            }
          },
          {
            "frame": 0.25,
            "value": {
              "__uuid__": "5eaa8b00-1970-43c2-a0eb-66b2582e667c"
            }
          },
          {
            "frame": 0.3333333333333333,
            "value": {
              "__uuid__": "e5efe49e-6356-44ac-9633-a0300facdea9"
            }
          },
          {
            "frame": 0.4166666666666667,
            "value": {
              "__uuid__": "0c5670e6-dd89-4dcd-8fd2-c7a33af570a6"
            }
          }
        ]
      }
    }
  },
  "events": []
}