{
  "__type__": "cc.SpriteFrame",
  "content": {
    "name": "Deer_DEATH_Male_0020",
    "texture": "f16ca944-e98d-4cd7-a304-4718448be35f",
    "atlas": "",
    "rect": [
      23,
      36,
      181,
      220
    ],
    "offset": [
      -14.5,
      -18
    ],
    "originalSize": [
      256,
      256
    ],
    "capInsets": [
      0,
      0,
      0,
      0
    ]
  }
}