{
  "__type__": "cc.SpriteFrame",
  "content": {
    "name": "Wild_Boar_DEATH_0010",
    "texture": "fd164744-f232-44e8-a04a-15918cf2677b",
    "atlas": "",
    "rect": [
      54,
      147,
      127,
      100
    ],
    "offset": [
      -10.5,
      -69
    ],
    "originalSize": [
      256,
      256
    ],
    "capInsets": [
      0,
      0,
      0,
      0
    ]
  }
}