{
  "__type__": "cc.SpriteFrame",
  "content": {
    "name": "Bear_RUN_0120",
    "texture": "e96a7e3c-7d49-41cd-86f6-ff0dcb4ccf74",
    "atlas": "",
    "rect": [
      83,
      118,
      183,
      130
    ],
    "offset": [
      -17.5,
      -55
    ],
    "originalSize": [
      384,
      256
    ],
    "capInsets": [
      0,
      0,
      0,
      0
    ]
  }
}