{
  "__type__": "cc.AnimationClip",
  "_name": "lazer_base_idle",
  "_objFlags": 0,
  "_native": "",
  "_duration": 0.6833333333333333,
  "sample": 60,
  "speed": 0.7,
  "wrapMode": 2,
  "curveData": {
    "comps": {
      "cc.Sprite": {
        "spriteFrame": [
          {
            "frame": 0,
            "value": {
              "__uuid__": "d50e0476-8189-499f-ac49-a44af956668a"
            }
          },
          {
            "frame": 0.08333333333333333,
            "value": {
              "__uuid__": "8369c2aa-46c2-449e-98cc-1af2af0cbada"
            }
          },
          {
            "frame": 0.16666666666666666,
            "value": {
              "__uuid__": "8003bc0f-f4f2-406b-8356-4f6b04e07494"
            }
          },
          {
            "frame": 0.25,
            "value": {
              "__uuid__": "7566d83f-17c7-42e7-a9ef-8663059eae3c"
            }
          },
          {
            "frame": 0.3333333333333333,
            "value": {
              "__uuid__": "5b478b5b-1361-4932-a787-52be6878f730"
            }
          },
          {
            "frame": 0.4166666666666667,
            "value": {
              "__uuid__": "7566d83f-17c7-42e7-a9ef-8663059eae3c"
            }
          },
          {
            "frame": 0.5,
            "value": {
              "__uuid__": "8003bc0f-f4f2-406b-8356-4f6b04e07494"
            }
          },
          {
            "frame": 0.5833333333333334,
            "value": {
              "__uuid__": "8369c2aa-46c2-449e-98cc-1af2af0cbada"
            }
          },
          {
            "frame": 0.6666666666666666,
            "value": {
              "__uuid__": "d50e0476-8189-499f-ac49-a44af956668a"
            }
          }
        ]
      }
    }
  },
  "events": []
}