{
  "__type__": "cc.SpriteFrame",
  "content": {
    "name": "Deer_RUN_Male_0170",
    "texture": "2a218d49-42bb-4cdf-b103-c0af41c94182",
    "atlas": "",
    "rect": [
      26,
      34,
      177,
      222
    ],
    "offset": [
      -13.5,
      -17
    ],
    "originalSize": [
      256,
      256
    ],
    "capInsets": [
      0,
      0,
      0,
      0
    ]
  }
}