{
  "__type__": "cc.SpriteFrame",
  "content": {
    "name": "37",
    "texture": "77700356-7d4a-4ecb-a3c9-5e468111469e",
    "atlas": "",
    "rect": [
      21,
      0,
      167,
      210
    ],
    "offset": [
      -0.5,
      0
    ],
    "originalSize": [
      210,
      210
    ],
    "capInsets": [
      0,
      0,
      0,
      0
    ]
  }
}