{
  "__type__": "cc.SpriteFrame",
  "content": {
    "name": "12",
    "texture": "5febca91-64ae-40b3-b244-433913d6422e",
    "atlas": "",
    "rect": [
      10,
      6,
      188,
      197
    ],
    "offset": [
      -1,
      0.5
    ],
    "originalSize": [
      210,
      210
    ],
    "capInsets": [
      0,
      0,
      0,
      0
    ]
  }
}