{
  "__type__": "cc.SpriteFrame",
  "content": {
    "name": "Wolf_WALK_0140",
    "texture": "87235f0d-4cb0-4e2e-85d0-d1dd0024a0e2",
    "atlas": "",
    "rect": [
      58,
      140,
      118,
      108
    ],
    "offset": [
      -11,
      -66
    ],
    "originalSize": [
      256,
      256
    ],
    "capInsets": [
      0,
      0,
      0,
      0
    ]
  }
}