{
  "__type__": "cc.AnimationClip",
  "_name": "deer_walk_female",
  "_objFlags": 0,
  "_native": "",
  "_duration": 0.75,
  "sample": 20,
  "speed": 0.8,
  "wrapMode": 2,
  "curveData": {
    "comps": {
      "cc.Sprite": {
        "spriteFrame": [
          {
            "frame": 0,
            "value": {
              "__uuid__": "027c78c5-9344-4883-b2e0-6d67881a1072"
            }
          },
          {
            "frame": 0.05,
            "value": {
              "__uuid__": "26cb51c4-3f2a-4c31-b752-274db691a75a"
            }
          },
          {
            "frame": 0.1,
            "value": {
              "__uuid__": "0c273741-417e-4f28-ba91-86297a1ecc04"
            }
          },
          {
            "frame": 0.15,
            "value": {
              "__uuid__": "0fc6d033-12f2-4e53-9181-b9921749670a"
            }
          },
          {
            "frame": 0.2,
            "value": {
              "__uuid__": "b3a5a9b4-f054-47ac-bfcf-5f586f9a106b"
            }
          },
          {
            "frame": 0.25,
            "value": {
              "__uuid__": "f76a6fd0-6095-49f6-8069-26be70d7a6bd"
            }
          },
          {
            "frame": 0.3,
            "value": {
              "__uuid__": "f8e5a20d-9d04-415e-a486-4287862b55ae"
            }
          },
          {
            "frame": 0.35,
            "value": {
              "__uuid__": "e48cb75b-37a1-449e-8c0c-50a9654ec25c"
            }
          },
          {
            "frame": 0.4,
            "value": {
              "__uuid__": "c46f5f6d-9db4-4219-b3ee-aac608660da8"
            }
          },
          {
            "frame": 0.45,
            "value": {
              "__uuid__": "14378d43-0fa8-42b6-b0d7-34f67ae91ad2"
            }
          },
          {
            "frame": 0.5,
            "value": {
              "__uuid__": "f1b1cbd0-79dd-480f-923a-05735152807d"
            }
          },
          {
            "frame": 0.55,
            "value": {
              "__uuid__": "d9191e45-1e03-4d89-9aa9-ca5372f3f160"
            }
          },
          {
            "frame": 0.6,
            "value": {
              "__uuid__": "9156cc3b-0a7f-41ff-ae72-f91665f45779"
            }
          },
          {
            "frame": 0.65,
            "value": {
              "__uuid__": "d948ee13-73f2-4f78-8abc-fa0dc80132bd"
            }
          },
          {
            "frame": 0.7,
            "value": {
              "__uuid__": "b20527d1-5967-464d-9501-269c7f0c81bb"
            }
          }
        ]
      }
    }
  },
  "events": []
}