{
  "__type__": "cc.SpriteFrame",
  "content": {
    "name": "Deer_RUN_Male_0070",
    "texture": "df2e36f0-21f0-4d19-99c9-17984eee73a7",
    "atlas": "",
    "rect": [
      31,
      20,
      201,
      229
    ],
    "offset": [
      3.5,
      -6.5
    ],
    "originalSize": [
      256,
      256
    ],
    "capInsets": [
      0,
      0,
      0,
      0
    ]
  }
}