{
  "__type__": "cc.SpriteFrame",
  "content": {
    "name": "16",
    "texture": "088b36e1-20a9-467a-b7ba-abd1f4c75d77",
    "atlas": "",
    "rect": [
      3,
      41,
      302,
      229
    ],
    "offset": [
      -1,
      -0.5
    ],
    "originalSize": [
      310,
      310
    ],
    "capInsets": [
      0,
      0,
      0,
      0
    ]
  }
}