{
  "__type__": "cc.AnimationClip",
  "_name": "bear_eat",
  "_objFlags": 0,
  "_native": "",
  "_duration": 0.85,
  "sample": 20,
  "speed": 0.4,
  "wrapMode": 1,
  "curveData": {
    "comps": {
      "cc.Sprite": {
        "spriteFrame": [
          {
            "frame": 0,
            "value": {
              "__uuid__": "2004daba-c6a8-422c-9874-26b135075efb"
            }
          },
          {
            "frame": 0.05,
            "value": {
              "__uuid__": "100ca628-6de3-4e23-b8f3-bfac5a03577a"
            }
          },
          {
            "frame": 0.1,
            "value": {
              "__uuid__": "4c50a1d8-3804-4dc0-8674-2e4585161452"
            }
          },
          {
            "frame": 0.15,
            "value": {
              "__uuid__": "089bc20a-ccae-4f96-a58e-0f51690aa920"
            }
          },
          {
            "frame": 0.2,
            "value": {
              "__uuid__": "b4680a64-82dc-4608-bddf-dbc8ed9fe94d"
            }
          },
          {
            "frame": 0.25,
            "value": {
              "__uuid__": "33dbe9ce-96cb-4bce-ae3f-d80312f66c21"
            }
          },
          {
            "frame": 0.3,
            "value": {
              "__uuid__": "3c9ef666-5a4e-4feb-b14b-4f5bb850f83c"
            }
          },
          {
            "frame": 0.35,
            "value": {
              "__uuid__": "76889703-6936-4a8e-9ee4-3ded45f69ea1"
            }
          },
          {
            "frame": 0.4,
            "value": {
              "__uuid__": "b5c15aac-6a85-4109-b354-297557a390b1"
            }
          },
          {
            "frame": 0.45,
            "value": {
              "__uuid__": "65f2adf4-b7ba-4ba8-bde4-a9f8be0ea00d"
            }
          },
          {
            "frame": 0.5,
            "value": {
              "__uuid__": "15ac9b83-d79e-4260-9100-cb3ffec2d1e6"
            }
          },
          {
            "frame": 0.55,
            "value": {
              "__uuid__": "347b403f-5060-4a53-aa84-6371f30f8ce3"
            }
          },
          {
            "frame": 0.6,
            "value": {
              "__uuid__": "126246d5-e9d8-47e5-868d-110c88f5d11d"
            }
          },
          {
            "frame": 0.65,
            "value": {
              "__uuid__": "0caec045-918e-4035-abba-329ea9b83dda"
            }
          },
          {
            "frame": 0.7,
            "value": {
              "__uuid__": "1eae4f03-4e9a-44d3-b886-2e51aa05bd14"
            }
          },
          {
            "frame": 0.75,
            "value": {
              "__uuid__": "e33d2270-ad3a-4f84-9622-377f27d051b4"
            }
          },
          {
            "frame": 0.8,
            "value": {
              "__uuid__": "d7f9d5d0-6e02-4212-a5f8-c1449f36fbcc"
            }
          }
        ]
      }
    }
  },
  "events": []
}