{
  "__type__": "cc.SpriteFrame",
  "content": {
    "name": "ElectricityFX15-7",
    "texture": "747626d8-afab-4fb9-ad08-b850979f889a",
    "atlas": "",
    "rect": [
      19,
      101,
      216,
      140
    ],
    "offset": [
      -1,
      -43
    ],
    "originalSize": [
      256,
      256
    ],
    "capInsets": [
      0,
      0,
      0,
      0
    ]
  }
}