{
  "__type__": "cc.AnimationClip",
  "_name": "bat_upside_down",
  "_objFlags": 0,
  "_native": "",
  "_duration": 0.5166666666666667,
  "sample": 60,
  "speed": 1,
  "wrapMode": 1,
  "curveData": {
    "comps": {
      "cc.Sprite": {
        "spriteFrame": [
          {
            "frame": 0,
            "value": {
              "__uuid__": "2a68473b-d3e9-45f2-a026-597bd121396d"
            }
          },
          {
            "frame": 0.08333333333333333,
            "value": {
              "__uuid__": "8fcf20c8-3576-46b1-81c3-0748e4e82011"
            }
          },
          {
            "frame": 0.16666666666666666,
            "value": {
              "__uuid__": "96aa2398-f520-44ae-9099-94d549fd2379"
            }
          },
          {
            "frame": 0.25,
            "value": {
              "__uuid__": "9c764c67-04e8-4cac-8c69-a07e454e97ab"
            }
          },
          {
            "frame": 0.3333333333333333,
            "value": {
              "__uuid__": "96aa2398-f520-44ae-9099-94d549fd2379"
            }
          },
          {
            "frame": 0.4166666666666667,
            "value": {
              "__uuid__": "8fcf20c8-3576-46b1-81c3-0748e4e82011"
            }
          },
          {
            "frame": 0.5,
            "value": {
              "__uuid__": "2a68473b-d3e9-45f2-a026-597bd121396d"
            }
          }
        ]
      }
    }
  },
  "events": []
}