{
  "__type__": "cc.SpriteFrame",
  "content": {
    "name": "ElectricityFX1-0",
    "texture": "b8819cfc-0207-4a8f-8c17-089cbbed783f",
    "atlas": "",
    "rect": [
      83,
      2,
      80,
      206
    ],
    "offset": [
      -5,
      19
    ],
    "originalSize": [
      256,
      248
    ],
    "capInsets": [
      0,
      0,
      0,
      0
    ]
  }
}