{
  "__type__": "cc.SpriteFrame",
  "content": {
    "name": "trunk_2",
    "texture": "47f8a90e-e8c0-4f21-9e90-326607f900b7",
    "atlas": "",
    "rect": [
      0,
      0,
      751,
      255
    ],
    "offset": [
      0,
      0
    ],
    "originalSize": [
      751,
      255
    ],
    "capInsets": [
      0,
      0,
      0,
      0
    ]
  }
}