{
  "__type__": "cc.SpriteFrame",
  "content": {
    "name": "Bear_IDLE_0050",
    "texture": "fb5c81c1-c1a9-4c34-b89f-dba83f912310",
    "atlas": "",
    "rect": [
      113,
      105,
      154,
      142
    ],
    "offset": [
      -2,
      -48
    ],
    "originalSize": [
      384,
      256
    ],
    "capInsets": [
      0,
      0,
      0,
      0
    ]
  }
}