{
  "__type__": "cc.SpriteFrame",
  "content": {
    "name": "Deer_WALK_Male_0010",
    "texture": "6bd9485d-0741-4220-aa44-5a7cf34c3cf1",
    "atlas": "",
    "rect": [
      25,
      32,
      177,
      224
    ],
    "offset": [
      -14.5,
      -16
    ],
    "originalSize": [
      256,
      256
    ],
    "capInsets": [
      0,
      0,
      0,
      0
    ]
  }
}