{
  "__type__": "cc.SpriteFrame",
  "content": {
    "name": "ElectricityFX25-2",
    "texture": "f01a5038-344b-4229-868e-6d72ba480804",
    "atlas": "",
    "rect": [
      54,
      36,
      181,
      218
    ],
    "offset": [
      16.5,
      -17.5
    ],
    "originalSize": [
      256,
      255
    ],
    "capInsets": [
      0,
      0,
      0,
      0
    ]
  }
}