{
  "__type__": "cc.AnimationClip",
  "_name": "flower_1",
  "_objFlags": 0,
  "_native": "",
  "_duration": 1.1833333333333333,
  "sample": 60,
  "speed": 1,
  "wrapMode": 2,
  "curveData": {
    "comps": {
      "cc.Sprite": {
        "spriteFrame": [
          {
            "frame": 0,
            "value": {
              "__uuid__": "177097de-c6a3-4166-9a0d-6c8d0b80d048"
            }
          },
          {
            "frame": 0.08333333333333333,
            "value": {
              "__uuid__": "da996572-82d1-487f-b624-968cf821d8a7"
            }
          },
          {
            "frame": 0.16666666666666666,
            "value": {
              "__uuid__": "b8bd8dc4-3272-4476-83d7-c324dd4983d9"
            }
          },
          {
            "frame": 0.25,
            "value": {
              "__uuid__": "69b9af08-de4d-4c55-b985-3535a007ff41"
            }
          },
          {
            "frame": 0.35,
            "value": {
              "__uuid__": "ec6c2dd2-da79-4f03-8a9d-c2951a9e5ef2"
            }
          },
          {
            "frame": 0.4666666666666667,
            "value": {
              "__uuid__": "16c84a63-6635-4d47-ba6f-365b47ef535b"
            }
          },
          {
            "frame": 0.5833333333333334,
            "value": {
              "__uuid__": "909e9b9a-864a-48c7-9564-ef59720b0a75"
            }
          },
          {
            "frame": 0.7,
            "value": {
              "__uuid__": "16c84a63-6635-4d47-ba6f-365b47ef535b"
            }
          },
          {
            "frame": 0.8166666666666667,
            "value": {
              "__uuid__": "ec6c2dd2-da79-4f03-8a9d-c2951a9e5ef2"
            }
          },
          {
            "frame": 0.9166666666666666,
            "value": {
              "__uuid__": "69b9af08-de4d-4c55-b985-3535a007ff41"
            }
          },
          {
            "frame": 1,
            "value": {
              "__uuid__": "b8bd8dc4-3272-4476-83d7-c324dd4983d9"
            }
          },
          {
            "frame": 1.0833333333333333,
            "value": {
              "__uuid__": "da996572-82d1-487f-b624-968cf821d8a7"
            }
          },
          {
            "frame": 1.1666666666666667,
            "value": {
              "__uuid__": "177097de-c6a3-4166-9a0d-6c8d0b80d048"
            }
          }
        ]
      }
    }
  },
  "events": []
}