{
  "__type__": "cc.AnimationClip",
  "_name": "flower_2",
  "_objFlags": 0,
  "_native": "",
  "_duration": 1.1833333333333333,
  "sample": 60,
  "speed": 1,
  "wrapMode": 2,
  "curveData": {
    "comps": {
      "cc.Sprite": {
        "spriteFrame": [
          {
            "frame": 0,
            "value": {
              "__uuid__": "882883be-79c8-48fa-9d06-b134f971537e"
            }
          },
          {
            "frame": 0.08333333333333333,
            "value": {
              "__uuid__": "52aa7422-fc5c-446c-b58b-2bf8bc56a50a"
            }
          },
          {
            "frame": 0.16666666666666666,
            "value": {
              "__uuid__": "9d7472ad-fd45-4284-b269-dd7731c67ae2"
            }
          },
          {
            "frame": 0.25,
            "value": {
              "__uuid__": "d48c3fe9-042f-47bf-8a28-462b87abf6e1"
            }
          },
          {
            "frame": 0.35,
            "value": {
              "__uuid__": "e46edff4-d903-477d-85a6-6de439a5c665"
            }
          },
          {
            "frame": 0.4666666666666667,
            "value": {
              "__uuid__": "e954dcca-6c89-4916-aca7-5952098ddf27"
            }
          },
          {
            "frame": 0.5833333333333334,
            "value": {
              "__uuid__": "d593d07f-6fe1-49f8-9dad-eae34446d496"
            }
          },
          {
            "frame": 0.7,
            "value": {
              "__uuid__": "e954dcca-6c89-4916-aca7-5952098ddf27"
            }
          },
          {
            "frame": 0.8166666666666667,
            "value": {
              "__uuid__": "e46edff4-d903-477d-85a6-6de439a5c665"
            }
          },
          {
            "frame": 0.9166666666666666,
            "value": {
              "__uuid__": "d48c3fe9-042f-47bf-8a28-462b87abf6e1"
            }
          },
          {
            "frame": 1,
            "value": {
              "__uuid__": "9d7472ad-fd45-4284-b269-dd7731c67ae2"
            }
          },
          {
            "frame": 1.0833333333333333,
            "value": {
              "__uuid__": "52aa7422-fc5c-446c-b58b-2bf8bc56a50a"
            }
          },
          {
            "frame": 1.1666666666666667,
            "value": {
              "__uuid__": "882883be-79c8-48fa-9d06-b134f971537e"
            }
          }
        ]
      }
    }
  },
  "events": []
}