{
  "__type__": "cc.AnimationClip",
  "_name": "lazer_attack",
  "_objFlags": 0,
  "_native": "",
  "_duration": 4.6,
  "sample": 60,
  "speed": 1,
  "wrapMode": 1,
  "curveData": {
    "comps": {
      "cc.Sprite": {
        "spriteFrame": [
          {
            "frame": 0,
            "value": {
              "__uuid__": "d50e0476-8189-499f-ac49-a44af956668a"
            }
          },
          {
            "frame": 0.08333333333333333,
            "value": {
              "__uuid__": "8369c2aa-46c2-449e-98cc-1af2af0cbada"
            }
          },
          {
            "frame": 0.16666666666666666,
            "value": {
              "__uuid__": "8003bc0f-f4f2-406b-8356-4f6b04e07494"
            }
          },
          {
            "frame": 0.25,
            "value": {
              "__uuid__": "7566d83f-17c7-42e7-a9ef-8663059eae3c"
            }
          },
          {
            "frame": 0.3333333333333333,
            "value": {
              "__uuid__": "5b478b5b-1361-4932-a787-52be6878f730"
            }
          },
          {
            "frame": 0.4166666666666667,
            "value": {
              "__uuid__": "a3c321e8-692a-499f-b1f8-3d20185a221b"
            }
          },
          {
            "frame": 0.5,
            "value": {
              "__uuid__": "31d6480e-748b-4caf-bad5-86c920513aea"
            }
          },
          {
            "frame": 0.5833333333333334,
            "value": {
              "__uuid__": "31d6480e-748b-4caf-bad5-86c920513aea"
            }
          },
          {
            "frame": 0.6666666666666666,
            "value": {
              "__uuid__": "76f1187e-2c00-4d21-aa70-310b90c293da"
            }
          },
          {
            "frame": 0.75,
            "value": {
              "__uuid__": "50ba3639-c91e-4cbe-b93c-c44ee863f4a1"
            }
          },
          {
            "frame": 0.8333333333333334,
            "value": {
              "__uuid__": "3afeeb8f-1845-4294-be0d-90b67bba42ea"
            }
          },
          {
            "frame": 3.8333333333333335,
            "value": {
              "__uuid__": "50ba3639-c91e-4cbe-b93c-c44ee863f4a1"
            }
          },
          {
            "frame": 3.9166666666666665,
            "value": {
              "__uuid__": "76f1187e-2c00-4d21-aa70-310b90c293da"
            }
          },
          {
            "frame": 4,
            "value": {
              "__uuid__": "31d6480e-748b-4caf-bad5-86c920513aea"
            }
          },
          {
            "frame": 4.083333333333333,
            "value": {
              "__uuid__": "5e87422d-0865-457f-bef2-c9ca1d2dc997"
            }
          },
          {
            "frame": 4.166666666666667,
            "value": {
              "__uuid__": "a3c321e8-692a-499f-b1f8-3d20185a221b"
            }
          },
          {
            "frame": 4.25,
            "value": {
              "__uuid__": "5b478b5b-1361-4932-a787-52be6878f730"
            }
          },
          {
            "frame": 4.333333333333333,
            "value": {
              "__uuid__": "7566d83f-17c7-42e7-a9ef-8663059eae3c"
            }
          },
          {
            "frame": 4.416666666666667,
            "value": {
              "__uuid__": "8003bc0f-f4f2-406b-8356-4f6b04e07494"
            }
          },
          {
            "frame": 4.5,
            "value": {
              "__uuid__": "8369c2aa-46c2-449e-98cc-1af2af0cbada"
            }
          },
          {
            "frame": 4.583333333333333,
            "value": {
              "__uuid__": "d50e0476-8189-499f-ac49-a44af956668a"
            }
          }
        ]
      }
    }
  },
  "events": []
}