{
  "__type__": "cc.AnimationClip",
  "_name": "thorn_2",
  "_objFlags": 0,
  "_native": "",
  "_duration": 1.35,
  "sample": 60,
  "speed": 1,
  "wrapMode": 2,
  "curveData": {
    "comps": {
      "cc.Sprite": {
        "spriteFrame": [
          {
            "frame": 0,
            "value": {
              "__uuid__": "82c9444d-da02-4206-b274-6e02f71ba5fb"
            }
          },
          {
            "frame": 0.16666666666666666,
            "value": {
              "__uuid__": "e1bd3190-0f38-4a46-b7cd-e6800736fdfb"
            }
          },
          {
            "frame": 0.3333333333333333,
            "value": {
              "__uuid__": "2cbbd722-2862-4bba-8aba-3d7412940392"
            }
          },
          {
            "frame": 0.5,
            "value": {
              "__uuid__": "219509f2-6286-4f8d-b7a1-fda4c3fed281"
            }
          },
          {
            "frame": 0.6666666666666666,
            "value": {
              "__uuid__": "5bf60d08-9520-4235-8e7c-f2acc4f003cc"
            }
          },
          {
            "frame": 0.8333333333333334,
            "value": {
              "__uuid__": "219509f2-6286-4f8d-b7a1-fda4c3fed281"
            }
          },
          {
            "frame": 1,
            "value": {
              "__uuid__": "2cbbd722-2862-4bba-8aba-3d7412940392"
            }
          },
          {
            "frame": 1.1666666666666667,
            "value": {
              "__uuid__": "e1bd3190-0f38-4a46-b7cd-e6800736fdfb"
            }
          },
          {
            "frame": 1.3333333333333333,
            "value": {
              "__uuid__": "82c9444d-da02-4206-b274-6e02f71ba5fb"
            }
          }
        ]
      }
    }
  },
  "events": []
}