{
  "__type__": "cc.SpriteFrame",
  "content": {
    "name": "ElectricityFX38-1",
    "texture": "ee81451e-c551-45b5-a5e0-28bbf2e6cb33",
    "atlas": "",
    "rect": [
      101,
      111,
      60,
      57
    ],
    "offset": [
      9,
      -11.5
    ],
    "originalSize": [
      244,
      256
    ],
    "capInsets": [
      0,
      0,
      0,
      0
    ]
  }
}