[
  {
    "__type__": "cc.Prefab",
    "_name": "thorn",
    "_objFlags": 0,
    "_native": "",
    "data": {
      "__id__": 1
    },
    "optimizationPolicy": 0,
    "asyncLoadAssets": false,
    "readonly": false
  },
  {
    "__type__": "cc.Node",
    "_name": "thorn",
    "_objFlags": 0,
    "_parent": null,
    "_children": [],
    "_active": true,
    "_components": [
      {
        "__id__": 2
      },
      {
        "__id__": 3
      },
      {
        "__id__": 4
      },
      {
        "__id__": 5
      }
    ],
    "_prefab": {
      "__id__": 6
    },
    "_opacity": 255,
    "_color": {
      "__type__": "cc.Color",
      "r": 255,
      "g": 255,
      "b": 255,
      "a": 255
    },
    "_contentSize": {
      "__type__": "cc.Size",
      "width": 1109,
      "height": 560
    },
    "_anchorPoint": {
      "__type__": "cc.Vec2",
      "x": 0.5,
      "y": 0.5
    },
    "_trs": {
      "__type__": "TypedArray",
      "ctor": "Float64Array",
      "array": [
        8687.501,
        3624.175,
        0,
        0,
        0,
        0,
        1,
        1,
        1,
        1
      ]
    },
    "_eulerAngles": {
      "__type__": "cc.Vec3",
      "x": 0,
      "y": 0,
      "z": 0
    },
    "_skewX": 0,
    "_skewY": 0,
    "_is3DNode": false,
    "_groupIndex": 0,
    "groupIndex": 0,
    "_id": ""
  },
  {
    "__type__": "cc.Sprite",
    "_name": "",
    "_objFlags": 0,
    "node": {
      "__id__": 1
    },
    "_enabled": true,
    "_materials": [
      {
        "__uuid__": "eca5d2f2-8ef6-41c2-bbe6-f9c79d09c432"
      }
    ],
    "_srcBlendFactor": 770,
    "_dstBlendFactor": 771,
    "_spriteFrame": {
      "__uuid__": "038016bb-ecec-4a0c-93ad-3d791c4ca417"
    },
    "_type": 0,
    "_sizeMode": 1,
    "_fillType": 0,
    "_fillCenter": {
      "__type__": "cc.Vec2",
      "x": 0,
      "y": 0
    },
    "_fillStart": 0,
    "_fillRange": 0,
    "_isTrimmedMode": true,
    "_atlas": {
      "__uuid__": "54d007aa-7462-4193-abea-1e104a7dfec6"
    },
    "_id": ""
  },
  {
    "__type__": "cc.RigidBody",
    "_name": "",
    "_objFlags": 0,
    "node": {
      "__id__": 1
    },
    "_enabled": true,
    "_type": 0,
    "_allowSleep": false,
    "_gravityScale": 1,
    "_linearDamping": 0,
    "_angularDamping": 0,
    "_linearVelocity": {
      "__type__": "cc.Vec2",
      "x": 0,
      "y": 0
    },
    "_angularVelocity": 0,
    "_fixedRotation": false,
    "enabledContactListener": true,
    "bullet": false,
    "awakeOnLoad": true,
    "_id": ""
  },
  {
    "__type__": "cc.PhysicsPolygonCollider",
    "_name": "",
    "_objFlags": 0,
    "node": {
      "__id__": 1
    },
    "_enabled": true,
    "tag": 2,
    "_density": 1,
    "_sensor": false,
    "_friction": 0.2,
    "_restitution": 0,
    "body": null,
    "_offset": {
      "__type__": "cc.Vec2",
      "x": 0,
      "y": 0
    },
    "points": [
      {
        "__type__": "cc.Vec2",
        "x": -83,
        "y": 129
      },
      {
        "__type__": "cc.Vec2",
        "x": -174,
        "y": 137
      },
      {
        "__type__": "cc.Vec2",
        "x": -206,
        "y": 178
      },
      {
        "__type__": "cc.Vec2",
        "x": -348,
        "y": 130
      },
      {
        "__type__": "cc.Vec2",
        "x": -465,
        "y": 90
      },
      {
        "__type__": "cc.Vec2",
        "x": -479,
        "y": 51
      },
      {
        "__type__": "cc.Vec2",
        "x": -484,
        "y": -40
      },
      {
        "__type__": "cc.Vec2",
        "x": -403,
        "y": -110
      },
      {
        "__type__": "cc.Vec2",
        "x": -307,
        "y": -132
      },
      {
        "__type__": "cc.Vec2",
        "x": -280,
        "y": -109
      },
      {
        "__type__": "cc.Vec2",
        "x": -195,
        "y": -134
      },
      {
        "__type__": "cc.Vec2",
        "x": -148,
        "y": -187
      },
      {
        "__type__": "cc.Vec2",
        "x": -119,
        "y": -170
      },
      {
        "__type__": "cc.Vec2",
        "x": -102,
        "y": -185
      },
      {
        "__type__": "cc.Vec2",
        "x": -40,
        "y": -219
      },
      {
        "__type__": "cc.Vec2",
        "x": 50,
        "y": -107
      },
      {
        "__type__": "cc.Vec2",
        "x": 127,
        "y": -158
      },
      {
        "__type__": "cc.Vec2",
        "x": 173,
        "y": -138
      },
      {
        "__type__": "cc.Vec2",
        "x": 221,
        "y": -172
      },
      {
        "__type__": "cc.Vec2",
        "x": 264,
        "y": -145
      },
      {
        "__type__": "cc.Vec2",
        "x": 316,
        "y": -140
      },
      {
        "__type__": "cc.Vec2",
        "x": 364,
        "y": -116
      },
      {
        "__type__": "cc.Vec2",
        "x": 436,
        "y": -111
      },
      {
        "__type__": "cc.Vec2",
        "x": 483,
        "y": -96
      },
      {
        "__type__": "cc.Vec2",
        "x": 484,
        "y": -53
      },
      {
        "__type__": "cc.Vec2",
        "x": 477,
        "y": 19
      },
      {
        "__type__": "cc.Vec2",
        "x": 455,
        "y": 51
      },
      {
        "__type__": "cc.Vec2",
        "x": 428,
        "y": 56
      },
      {
        "__type__": "cc.Vec2",
        "x": 422,
        "y": 116
      },
      {
        "__type__": "cc.Vec2",
        "x": 393,
        "y": 182
      },
      {
        "__type__": "cc.Vec2",
        "x": 302,
        "y": 125
      },
      {
        "__type__": "cc.Vec2",
        "x": 204,
        "y": 135
      },
      {
        "__type__": "cc.Vec2",
        "x": 181,
        "y": 189
      },
      {
        "__type__": "cc.Vec2",
        "x": 132,
        "y": 208
      },
      {
        "__type__": "cc.Vec2",
        "x": 14,
        "y": 178
      }
    ],
    "_id": ""
  },
  {
    "__type__": "cc.Animation",
    "_name": "",
    "_objFlags": 0,
    "node": {
      "__id__": 1
    },
    "_enabled": true,
    "_defaultClip": {
      "__uuid__": "5a65a2e9-b627-4174-8a07-25bc0fdca64a"
    },
    "_clips": [
      {
        "__uuid__": "5a65a2e9-b627-4174-8a07-25bc0fdca64a"
      }
    ],
    "playOnLoad": true,
    "_id": ""
  },
  {
    "__type__": "cc.PrefabInfo",
    "root": {
      "__id__": 1
    },
    "asset": {
      "__uuid__": "f6857e0c-80e4-400b-8482-d987644df2bf"
    },
    "fileId": "9bydW+zhxF/INY8h/J6Ear",
    "sync": false
  }
]