{
  "__type__": "cc.SpriteFrame",
  "content": {
    "name": "Wolf_HOWL_0020",
    "texture": "e8328c97-5266-492b-b854-9789d31235f8",
    "atlas": "",
    "rect": [
      60,
      162,
      123,
      87
    ],
    "offset": [
      -6.5,
      -77.5
    ],
    "originalSize": [
      256,
      256
    ],
    "capInsets": [
      0,
      0,
      0,
      0
    ]
  }
}