{
  "__type__": "cc.SpriteFrame",
  "content": {
    "name": "21",
    "texture": "3dbf2f27-c6c2-45f1-8471-9508ace852f2",
    "atlas": "",
    "rect": [
      13,
      0,
      195,
      199
    ],
    "offset": [
      -0.5,
      0
    ],
    "originalSize": [
      222,
      199
    ],
    "capInsets": [
      0,
      0,
      0,
      0
    ]
  }
}