{
  "__type__": "cc.SpriteFrame",
  "content": {
    "name": "Wild_Boar_WALK_0120",
    "texture": "992b9e83-0aaf-4ffd-a34a-c441b6f9c6f6",
    "atlas": "",
    "rect": [
      56,
      142,
      134,
      104
    ],
    "offset": [
      -5,
      -66
    ],
    "originalSize": [
      256,
      256
    ],
    "capInsets": [
      0,
      0,
      0,
      0
    ]
  }
}