{
  "__type__": "cc.SpriteFrame",
  "content": {
    "name": "Deer_RUN_Female_0110",
    "texture": "0da9fb5a-2801-4f90-9e7e-35b167218026",
    "atlas": "",
    "rect": [
      61,
      72,
      149,
      139
    ],
    "offset": [
      7.5,
      -13.5
    ],
    "originalSize": [
      256,
      256
    ],
    "capInsets": [
      0,
      0,
      0,
      0
    ]
  }
}