{
  "__type__": "cc.SpriteFrame",
  "content": {
    "name": "47",
    "texture": "8d1f010f-1c19-4cdc-9430-9abeb9508f1a",
    "atlas": "",
    "rect": [
      0,
      1,
      314,
      216
    ],
    "offset": [
      0,
      0.5
    ],
    "originalSize": [
      314,
      219
    ],
    "capInsets": [
      0,
      0,
      0,
      0
    ]
  }
}