{
  "__type__": "cc.SpriteFrame",
  "content": {
    "name": "Bear_DEATH_0080",
    "texture": "c4e4caa4-aaa8-47d9-9d63-4c65bda7ef9b",
    "atlas": "",
    "rect": [
      182,
      12,
      134,
      241
    ],
    "offset": [
      57,
      -4.5
    ],
    "originalSize": [
      384,
      256
    ],
    "capInsets": [
      0,
      0,
      0,
      0
    ]
  }
}