{
  "__type__": "cc.SpriteFrame",
  "content": {
    "name": "obstacle_7",
    "texture": "49e71c15-0cdc-40fe-9279-8a1177aae107",
    "atlas": "71db2a60-84f3-48e7-b0ce-30401b5cd4da",
    "rect": [
      0,
      1050,
      850,
      350
    ],
    "offset": [
      0,
      0
    ],
    "originalSize": [
      850,
      350
    ],
    "capInsets": [
      0,
      0,
      0,
      0
    ]
  }
}