{
  "__type__": "cc.SpriteFrame",
  "content": {
    "name": "Bear_IDLE_0030",
    "texture": "b486e095-7e63-4069-bf10-53ad1e118775",
    "atlas": "",
    "rect": [
      113,
      105,
      154,
      142
    ],
    "offset": [
      -2,
      -48
    ],
    "originalSize": [
      384,
      256
    ],
    "capInsets": [
      0,
      0,
      0,
      0
    ]
  }
}