{
  "__type__": "cc.SpriteFrame",
  "content": {
    "name": "background",
    "texture": "96703691-fb97-47f4-8ab3-c862b5864d30",
    "atlas": "",
    "rect": [
      0,
      0,
      11999,
      8232
    ],
    "offset": [
      0,
      0
    ],
    "originalSize": [
      11999,
      8232
    ],
    "capInsets": [
      0,
      0,
      0,
      0
    ]
  }
}