{
  "__type__": "cc.SpriteFrame",
  "content": {
    "name": "Deer_IDLE_Male_0040",
    "texture": "08900e01-6b1d-490c-9cca-34fb0ca8dbc8",
    "atlas": "",
    "rect": [
      63,
      59,
      112,
      188
    ],
    "offset": [
      -9,
      -25
    ],
    "originalSize": [
      256,
      256
    ],
    "capInsets": [
      0,
      0,
      0,
      0
    ]
  }
}