{
  "__type__": "cc.SpriteFrame",
  "content": {
    "name": "Bear_IDLE_0070",
    "texture": "1da52c40-42b9-42ab-8ecf-c4cd1a3bbf03",
    "atlas": "",
    "rect": [
      115,
      105,
      152,
      142
    ],
    "offset": [
      -1,
      -48
    ],
    "originalSize": [
      384,
      256
    ],
    "capInsets": [
      0,
      0,
      0,
      0
    ]
  }
}