{
  "__type__": "cc.SpriteFrame",
  "content": {
    "name": "24",
    "texture": "185a47c0-66f2-4617-b203-b5c0954c83a4",
    "atlas": "",
    "rect": [
      0,
      15,
      232,
      200
    ],
    "offset": [
      0,
      1
    ],
    "originalSize": [
      232,
      232
    ],
    "capInsets": [
      0,
      0,
      0,
      0
    ]
  }
}