{
  "__type__": "cc.SpriteFrame",
  "content": {
    "name": "Deer_IDLE_Male_0060",
    "texture": "4a9e8443-964c-4f30-a9ce-7ed493ca1d30",
    "atlas": "",
    "rect": [
      30,
      33,
      176,
      223
    ],
    "offset": [
      -10,
      -16.5
    ],
    "originalSize": [
      256,
      256
    ],
    "capInsets": [
      0,
      0,
      0,
      0
    ]
  }
}