{
  "__type__": "cc.SpriteFrame",
  "content": {
    "name": "Wolf_DEATH_0140",
    "texture": "5e8d3813-b5b0-4211-83f6-cc96ec4d4795",
    "atlas": "",
    "rect": [
      22,
      179,
      154,
      69
    ],
    "offset": [
      -29,
      -85.5
    ],
    "originalSize": [
      256,
      256
    ],
    "capInsets": [
      0,
      0,
      0,
      0
    ]
  }
}