{
  "__type__": "cc.SpriteFrame",
  "content": {
    "name": "Wild_Boar_EAT_0050",
    "texture": "a0121a3e-2da1-4d75-a2b6-cdf82de17dd3",
    "atlas": "",
    "rect": [
      58,
      161,
      125,
      86
    ],
    "offset": [
      -7.5,
      -76
    ],
    "originalSize": [
      256,
      256
    ],
    "capInsets": [
      0,
      0,
      0,
      0
    ]
  }
}