{
  "__type__": "cc.SpriteFrame",
  "content": {
    "name": "11",
    "texture": "00f9fad1-64d3-40ab-860b-c5c569ddb646",
    "atlas": "",
    "rect": [
      10,
      5,
      190,
      200
    ],
    "offset": [
      0,
      0
    ],
    "originalSize": [
      210,
      210
    ],
    "capInsets": [
      0,
      0,
      0,
      0
    ]
  }
}