{
  "__type__": "cc.SpriteFrame",
  "content": {
    "name": "8",
    "texture": "b14a3bfd-e4d1-4055-8828-3c13117df0a0",
    "atlas": "",
    "rect": [
      0,
      0,
      780,
      780
    ],
    "offset": [
      0,
      0
    ],
    "originalSize": [
      780,
      780
    ],
    "capInsets": [
      0,
      0,
      0,
      0
    ]
  }
}