{
  "__type__": "cc.SpriteFrame",
  "content": {
    "name": "Wolf_WALK_0100",
    "texture": "a8146583-4a4a-4c96-8300-fba936e20fc2",
    "atlas": "",
    "rect": [
      58,
      143,
      117,
      104
    ],
    "offset": [
      -11.5,
      -67
    ],
    "originalSize": [
      256,
      256
    ],
    "capInsets": [
      0,
      0,
      0,
      0
    ]
  }
}