{
  "__type__": "cc.SpriteFrame",
  "content": {
    "name": "Deer_RUN_Female_0030",
    "texture": "e65d953d-5568-4c65-b61d-c2134f6eb6f6",
    "atlas": "",
    "rect": [
      53,
      87,
      136,
      153
    ],
    "offset": [
      -7,
      -35.5
    ],
    "originalSize": [
      256,
      256
    ],
    "capInsets": [
      0,
      0,
      0,
      0
    ]
  }
}