{
  "__type__": "cc.SpriteFrame",
  "content": {
    "name": "start_btn",
    "texture": "c79d4a7e-ddcc-4b95-89b5-7728afb21060",
    "atlas": "",
    "rect": [
      28,
      129,
      391,
      23
    ],
    "offset": [
      -1.5,
      9.5
    ],
    "originalSize": [
      450,
      300
    ],
    "capInsets": [
      0,
      0,
      0,
      0
    ]
  }
}