{
  "__type__": "cc.SpriteFrame",
  "content": {
    "name": "36",
    "texture": "373b6e9c-4e1d-4f00-a392-4ccec601b8bb",
    "atlas": "",
    "rect": [
      14,
      0,
      197,
      224
    ],
    "offset": [
      0.5,
      0
    ],
    "originalSize": [
      224,
      224
    ],
    "capInsets": [
      0,
      0,
      0,
      0
    ]
  }
}