{
  "__type__": "cc.AnimationClip",
  "_name": "wild_boar_idle",
  "_objFlags": 0,
  "_native": "",
  "_duration": 0.75,
  "sample": 20,
  "speed": 0.4,
  "wrapMode": 1,
  "curveData": {
    "comps": {
      "cc.Sprite": {
        "spriteFrame": [
          {
            "frame": 0,
            "value": {
              "__uuid__": "7e78260a-7dbe-49a4-ae95-d42f876dbbed"
            }
          },
          {
            "frame": 0.05,
            "value": {
              "__uuid__": "7b0ce787-3faa-4201-b4ae-58dd3e498177"
            }
          },
          {
            "frame": 0.1,
            "value": {
              "__uuid__": "04d1b80c-aabb-4839-a285-d9888dde863e"
            }
          },
          {
            "frame": 0.15,
            "value": {
              "__uuid__": "f5d23c43-6ed7-41af-8112-6c532a695c0a"
            }
          },
          {
            "frame": 0.2,
            "value": {
              "__uuid__": "60b3ff23-bfc9-4f5d-a4f5-6e4840cad999"
            }
          },
          {
            "frame": 0.25,
            "value": {
              "__uuid__": "ab815a53-87db-4874-ac62-50280fda37de"
            }
          },
          {
            "frame": 0.3,
            "value": {
              "__uuid__": "076a9b73-4fb9-4c4b-a431-0888ef8e2bac"
            }
          },
          {
            "frame": 0.35,
            "value": {
              "__uuid__": "20958789-2475-428c-9cb9-2bcad003637b"
            }
          },
          {
            "frame": 0.4,
            "value": {
              "__uuid__": "f2195723-89c3-4da1-bec4-fd1b01c8b999"
            }
          },
          {
            "frame": 0.45,
            "value": {
              "__uuid__": "d9e7b331-72d6-4079-a33e-e5b016e53077"
            }
          },
          {
            "frame": 0.5,
            "value": {
              "__uuid__": "730b8c28-bd68-4c94-b55c-ff53611638a5"
            }
          },
          {
            "frame": 0.55,
            "value": {
              "__uuid__": "d920ca24-251d-41db-aa64-9475eed0f880"
            }
          },
          {
            "frame": 0.6,
            "value": {
              "__uuid__": "a704e0e5-9b29-45a2-9e20-7a212d938c2b"
            }
          },
          {
            "frame": 0.65,
            "value": {
              "__uuid__": "051d9802-0019-4f2c-9adf-d615427a91cf"
            }
          },
          {
            "frame": 0.7,
            "value": {
              "__uuid__": "f792e9c3-b623-4b7c-bd86-d0d3bf989c09"
            }
          }
        ]
      }
    }
  },
  "events": []
}