{
  "__type__": "cc.SpriteFrame",
  "content": {
    "name": "Bear_IDLE_0180",
    "texture": "43bbbbe9-d44c-44c5-967a-9f8ee3eebccb",
    "atlas": "",
    "rect": [
      66,
      107,
      201,
      140
    ],
    "offset": [
      -25.5,
      -49
    ],
    "originalSize": [
      384,
      256
    ],
    "capInsets": [
      0,
      0,
      0,
      0
    ]
  }
}