{
  "__type__": "cc.SpriteFrame",
  "content": {
    "name": "Bat_OnTree_0001",
    "texture": "36943d6b-f537-4e10-b826-7ed203c1f0fa",
    "atlas": "",
    "rect": [
      44,
      29,
      38,
      70
    ],
    "offset": [
      -1,
      0
    ],
    "originalSize": [
      128,
      128
    ],
    "capInsets": [
      0,
      0,
      0,
      0
    ]
  }
}